-rw-r--r-- 1 user user  3028 sty 22 11:07 adduser.conf
-rw-r--r-- 1 user user   433 sty 22 11:07 apg.conf
-rw-r--r-- 1 user user   769 sty 22 11:07 appstream.conf
-rw-r--r-- 1 user user 26916 sty 22 11:07 brltty.conf
-rw-r--r-- 1 user user  6505 sty 22 11:07 ca-certificates.conf
-rw-r--r-- 1 user user  2969 sty 22 11:07 debconf.conf
-rw-r--r-- 1 user user   604 sty 22 11:07 deluser.conf
-rw-r--r-- 1 user user   685 sty 22 11:07 e2scrub.conf
-rw-r--r-- 1 user user    20 sty 22 11:07 fprintd.conf
-rw-r--r-- 1 user user   280 sty 22 11:07 fuse.conf
-rw-r--r-- 1 user user  2584 sty 22 11:07 gai.conf
-rw-r--r-- 1 user user  5060 sty 22 11:07 hdparm.conf
-rw-r--r-- 1 user user    92 sty 22 11:07 host.conf
-rw-r--r-- 1 user user    71 sty 22 11:07 inxi.conf
-rw-r--r-- 1 user user   110 sty 22 11:07 kernel-img.conf
-rw-r--r-- 1 user user  1308 sty 22 11:07 kerneloops.conf
-rw-r--r-- 1 user user    34 sty 22 11:07 ld.so.conf
-rw-r--r-- 1 user user    27 sty 22 11:07 libao.conf
-rw-r--r-- 1 user user   191 sty 22 11:07 libaudit.conf
-rw-r--r-- 1 user user   533 sty 22 11:07 logrotate.conf
-rw-r--r-- 1 user user 14867 sty 22 11:07 ltrace.conf
-rw-r--r-- 1 user user   808 sty 22 11:07 mke2fs.conf
-rw-r--r-- 1 user user   624 sty 22 11:07 mtools.conf
-rw-r--r-- 1 user user   542 sty 22 11:07 nsswitch.conf
-rw-r--r-- 1 user user   552 sty 22 11:07 pam.conf
-rw-r--r-- 1 user user  7649 sty 22 11:07 pnm2ppa.conf
-rw-rw-r-- 1 user user   350 sty 22 11:07 popularity-contest.conf
-rw-r--r-- 1 user user   717 sty 22 11:07 resolv.conf
-rw-r--r-- 1 user user  1382 sty 22 11:07 rsyslog.conf
-rw-r--r-- 1 user user  5211 sty 22 11:07 rygel.conf
-rw-r--r-- 1 user user 10593 sty 22 11:07 sensors3.conf
-rw-r--r-- 1 user user  2351 sty 22 11:07 sysctl.conf
-rw-r--r-- 1 user user  1260 sty 22 11:07 ucf.conf
-rw-r--r-- 1 user user   556 sty 22 11:07 updatedb.conf
-rw-r--r-- 1 user user  1523 sty 22 11:07 usb_modeswitch.conf
-rw-r--r-- 1 user user   642 sty 22 11:07 xattr.conf
