razem 181688
-rwxr-xr-x 1 root      428 maj  7  2006 c89-gcc
-rwxr-xr-x 1 root    17143 lis 26  2006 dirsplit
-rwxr-xr-x 1 root      454 kwi 11  2011 c99-gcc
-rwxr-xr-x 1 root      273 maj 19  2016 apturl
-rwxr-xr-x 1 root  1652232 sie 12  2016 pnm2ppa
-rwxr-xr-x 1 root    27688 sie 12  2016 calibrate_ppa
-rwxr-xr-x 1 root     1577 sty 21  2017 linux-boot-prober
-rwxr-xr-x 1 root     4551 sty 31  2017 os-prober
-rwxr-xr-x 1 root    29528 kwi 21  2017 syslinux-legacy
-rwxr-xr-x 1 root    14720 kwi 21  2017 time
-rwxr-xr-x 1 root    93584 kwi 21  2017 zipsplit
-rwxr-xr-x 1 root    89488 kwi 21  2017 zipnote
-rwxr-xr-x 1 root    93816 kwi 21  2017 zipcloak
-rwxr-xr-x 1 root   216256 kwi 21  2017 zip
-rwxr-xr-x 1 root    51192 cze  3  2017 lp_solve
-rwxr-xr-x 1 root     3820 sie 12  2017 laptop-detect
-rwxr-xr-x 1 root     1081 sie 28  2017 lspgpot
-rwxr-xr-x 1 root    26696 paź  2  2017 apgbfm
-rwxr-xr-x 1 root      274 paź  2  2017 apg
-rwxr-xr-x 1 root    10232 gru  1  2017 kerneloops-submit
-rwxr-xr-x 1 root    31112 lut 10  2018 ijs_pxljr
-rwxr-xr-x 1 root    22520 mar 18  2018 ucs2any
-rwxr-xr-x 1 root    39440 mar 18  2018 mkfontscale
-rwxr-xr-x 1 root       65 mar 18  2018 mkfontdir
-rwxr-xr-x 1 root    34832 mar 18  2018 fonttosfnt
-rwxr-xr-x 1 root    10232 mar 18  2018 bdftruncate
-rwxr-xr-x 1 root    43128 mar 18  2018 bdftopcf
-rwxr-xr-x 1 root    40360 mar 18  2018 xvidtune
-rwxr-xr-x 1 root    14920 mar 18  2018 xstdcmap
-rwxr-xr-x 1 root    18432 mar 18  2018 xsetroot
-rwxr-xr-x 1 root    10232 mar 18  2018 xsetpointer
-rwxr-xr-x 1 root    10232 mar 18  2018 xsetmode
-rwxr-xr-x 1 root    30712 mar 18  2018 xset
-rwxr-xr-x 1 root    10312 mar 18  2018 xrefresh
-rwxr-xr-x 1 root    30808 mar 18  2018 xrdb
-rwxr-xr-x 1 root    63576 mar 18  2018 xrandr
-rwxr-xr-x 1 root    35160 mar 18  2018 xmodmap
-rwxr-xr-x 1 root    16982 mar 18  2018 xkeystone
-rwxr-xr-x 1 root    14328 mar 18  2018 xhost
-rwxr-xr-x 1 root    10232 mar 18  2018 xgamma
-rwxr-xr-x 1 root    31480 mar 18  2018 xcmsdb
-rwxr-xr-x 1 root    10232 mar 18  2018 showrgb
-rwxr-xr-x 1 root    14328 mar 18  2018 sessreg
-rwxr-xr-x 1 root    39032 mar 18  2018 iceauth
-rwxr-xr-x 1 root     4905 lip 28  2018 make-first-existing-target
-rwxr-xr-x 1 root   230968 lip 28  2018 make
-rwxr-xr-x 1 root    12060 sie  6  2018 mimetype
-rwxr-xr-x 1 root     8626 sie  6  2018 mimeopen
-rwxr-xr-x 1 root    27952 paź 30  2018 min12xxw
-rwxr-xr-x 1 root    14344 paź 30  2018 esc-m
-rwxr-xr-x 1 root      474 lis 15  2018 select-default-iwrap
-rwxr-xr-x 1 root     7222 lis 15  2018 ispell-wrapper
-rwxr-xr-x 1 root    10722 gru 14  2018 ucfr
-rwxr-xr-x 1 root    19367 gru 14  2018 ucfq
-rwxr-xr-x 1 root    40685 gru 14  2018 ucf
-rwxr-xr-x 1 root     7786 gru 14  2018 lcf
-rwxr-xr-x 1 root   121288 gru 22  2018 sed
-rwxr-xr-x 1 root    22600 gru 28  2018 xdg-user-dirs-gtk-update
-rwxr-xr-x 1 root    55392 sty 14  2019 dc
-rwxr-xr-x 1 root   101064 sty 14  2019 bc
-rwxr-xr-x 1 root    26696 sty 24  2019 xdg-user-dirs-update
-rwxr-xr-x 1 root      234 sty 24  2019 xdg-user-dir
-rwxr-xr-x 1 root   308560 lut  1  2019 ltrace
-rwxr-xr-x 1 root     1362 lut  8  2019 pon
-rwxr-xr-x 1 root     2837 lut  8  2019 poff
-rwxr-xr-x 1 root      146 lut  8  2019 plog
-rwxr-xr-x 1 root    14488 lut 21  2019 gkbd-keyboard-display
-rwxr-xr-x 1 root   109256 lut 24  2019 netkit-ftp
-rwxr-xr-x 1 root     9444 lut 27  2019 dh_installxmlcatalogs
-rwxr-xr-x 1 root     1821 mar 18  2019 strace-log-merge
-rwxr-xr-x 1 root    11009 mar 30  2019 im-config
-rwxr-xr-x 1 root     1920 mar 30  2019 im-launch
-rwxr-xr-x 1 root    51296 kwi  8  2019 sdiff
-rwxr-xr-x 1 root    67800 kwi  8  2019 diff3
-rwxr-xr-x 1 root   219480 kwi  8  2019 diff
-rwxr-xr-x 1 root    51296 kwi  8  2019 cmp
-rwxr-xr-x 1 root    47752 maj  3  2019 ntfswipe
-rwxr-xr-x 1 root    38936 maj  3  2019 ntfsusermap
-rwxr-xr-x 1 root    43040 maj  3  2019 ntfstruncate
-rwxr-xr-x 1 root    96864 maj  3  2019 ntfssecaudit
-rwxr-xr-x 1 root   125032 maj  3  2019 ntfsrecover
-rwxr-xr-x 1 root    39016 maj  3  2019 ntfsmove
-rwxr-xr-x 1 root    36024 maj  3  2019 ntfsls
-rwxr-xr-x 1 root    59512 maj  3  2019 ntfsinfo
-rwxr-xr-x 1 root    43120 maj  3  2019 ntfsfix
-rwxr-xr-x 1 root    39024 maj  3  2019 ntfsfallocate
-rwxr-xr-x 1 root    51320 maj  3  2019 ntfsdecrypt
-rwxr-xr-x 1 root    39016 maj  3  2019 ntfscmp
-rwxr-xr-x 1 root    39016 maj  3  2019 ntfscluster
-rwxr-xr-x 1 root    34920 maj  3  2019 ntfscat
-rwxr-xr-x 1 root    14408 maj  3  2019 ntfs-3g.probe
-rwxr-xr-x 1 root   158448 maj  3  2019 ntfs-3g
-rwxr-xr-x 1 root   117456 maj  3  2019 lowntfs-3g
-rwxr-xr-x 1 root    63824 maj  4  2019 sbverify
-rwxr-xr-x 1 root    63952 maj  4  2019 sbvarsign
-rwxr-xr-x 1 root    59792 maj  4  2019 sbsign
-rwxr-xr-x 1 root    55696 maj  4  2019 sbsiglist
-rwxr-xr-x 1 root    68144 maj  4  2019 sbkeysync
-rwxr-xr-x 1 root    55632 maj  4  2019 sbattach
-rwxr-xr-x 1 root    14472 maj  4  2019 kmodsign
-rwxr-xr-x 1 root      530 maj  9  2019 unicode_stop
-rwxr-xr-x 1 root     2762 maj  9  2019 unicode_start
-rwxr-xr-x 1 root    14328 maj  9  2019 splitfont
-rwxr-xr-x 1 root    18504 maj  9  2019 showkey
-rwxr-xr-x 1 root    18504 maj  9  2019 showconsolefont
-rwxr-xr-x 1 root    14440 maj  9  2019 setmetamode
-rwxr-xr-x 1 root    14408 maj  9  2019 setlogcons
-rwxr-xr-x 1 root    14392 maj  9  2019 setleds
-rwxr-xr-x 1 root    14408 maj  9  2019 setkeycodes
-rwxr-xr-x 1 root    47240 maj  9  2019 setfont
-rwxr-xr-x 1 root    14328 maj  9  2019 screendump
-rwxr-xr-x 1 root    22664 maj  9  2019 resizecons
-rwxr-xr-x 1 root    22520 maj  9  2019 psfxtable
-rwxr-xr-x 1 root    22968 maj  9  2019 openvt
-rwxr-xr-x 1 root    16163 maj  9  2019 mk_modmap
-rwxr-xr-x 1 root    26760 maj  9  2019 mapscrn
-rwxr-xr-x 1 root    34952 maj  9  2019 loadunimap
-rwxr-xr-x 1 root   215624 maj  9  2019 loadkeys
-rwxr-xr-x 1 root    14408 maj  9  2019 kbd_mode
-rwxr-xr-x 1 root    14408 maj  9  2019 kbdinfo
-rwxr-xr-x 1 root    14408 maj  9  2019 getkeycodes
-rwxr-xr-x 1 root    14408 maj  9  2019 fgconsole
-rwxr-xr-x 1 root   178712 maj  9  2019 dumpkeys
-rwxr-xr-x 1 root    14408 maj  9  2019 deallocvt
-rwxr-xr-x 1 root    14328 maj  9  2019 codepage
-rwxr-xr-x 1 root    14408 maj  9  2019 chvt
-rwxr-xr-x 1 root    18504 cze 21  2019 canberra-gtk-play
-rwxr-xr-x 1 root     4430 cze 21  2019 deb-systemd-invoke
-rwxr-xr-x 1 root    21328 cze 21  2019 deb-systemd-helper
-rwxr-xr-x 1 root    14328 cze 26  2019 paperconf
-rwxr-xr-x 1 root     2936 lip  2  2019 usb-creator-gtk
-rwxr-xr-x 1 root    14488 lip  8  2019 volname
-rwxr-xr-x 1 root    35680 lip  8  2019 eject
-rwxr-xr-x 1 root   129816 lip 18  2019 dash
-rwxr-xr-x 1 root   548568 lip 24  2019 wget
-rwxr-xr-x 1 root   195096 lip 27  2019 patch
-rwxr-xr-x 1 root     1827 sie  3  2019 debconf-show
-rwxr-xr-x 1 root     2935 sie  3  2019 debconf-set-selections
-rwxr-xr-x 1 root      647 sie  3  2019 debconf-escape
-rwxr-xr-x 1 root     1719 sie  3  2019 debconf-copydb
-rwxr-xr-x 1 root      608 sie  3  2019 debconf-communicate
-rwxr-xr-x 1 root    11541 sie  3  2019 debconf-apt-progress
-rwxr-xr-x 1 root     2859 sie  3  2019 debconf
-rwxr-xr-x 1 root   186664 sie 16  2019 zipinfo
-rwxr-xr-x 1 root     2953 sie 16  2019 zipgrep
-rwxr-xr-x 1 root    84248 sie 16  2019 unzipsfx
-rwxr-xr-x 1 root   186664 sie 16  2019 unzip
-rwxr-xr-x 1 root    26776 sie 16  2019 funzip
-rwxr-xr-x 1 root    18744 sie 16  2019 pkttyagent
-rwsr-xr-x 1 root    31032 sie 16  2019 pkexec
-rwxr-xr-x 1 root    22912 sie 16  2019 pkcheck
-rwxr-xr-x 1 root    18744 sie 16  2019 pkaction
-rwxr-xr-x 1 root    18167 sie 19  2019 networkd-dispatcher
-rwxr-xr-x 1 root    39296 sie 20  2019 mtr-packet
-rwxr-xr-x 1 root    82176 sie 20  2019 mtr
-rwxr-xr-x 1 root    22864 sie 24  2019 xinit
-rwxr-xr-x 1 root     5519 sie 24  2019 startx
-rwxr-xr-x 1 root    56288 sie 25  2019 xauth
-rwxr-xr-x 1 root     3638 sie 25  2019 lsb_release
-rwxr-xr-x 1 root   118904 sie 29  2019 unsquashfs
-rwxr-xr-x 1 root   219096 sie 29  2019 mksquashfs
-rwxr-xr-x 1 root     8564 wrz  3  2019 lesspipe
-rwxr-xr-x 1 root     4877 wrz  4  2019 bzexe
-rwxr-xr-x 1 root    39256 wrz  5  2019 yes
-rwxr-xr-x 1 root    39256 wrz  5  2019 whoami
-rwxr-xr-x 1 root    59768 wrz  5  2019 who
-rwxr-xr-x 1 root    47456 wrz  5  2019 wc
-rwxr-xr-x 1 root   142144 wrz  5  2019 vdir
-rwxr-xr-x 1 root    39256 wrz  5  2019 users
-rwxr-xr-x 1 root    39256 wrz  5  2019 unlink
-rwxr-xr-x 1 root    51576 wrz  5  2019 uniq
-rwxr-xr-x 1 root    43384 wrz  5  2019 unexpand
-rwxr-xr-x 1 root    39288 wrz  5  2019 uname
-rwxr-xr-x 1 root    39256 wrz  5  2019 tty
-rwxr-xr-x 1 root    43352 wrz  5  2019 tsort
-rwxr-xr-x 1 root    43352 wrz  5  2019 truncate
-rwxr-xr-x 1 root    39256 wrz  5  2019 true
-rwxr-xr-x 1 root    51544 wrz  5  2019 tr
-rwxr-xr-x 1 root   100728 wrz  5  2019 touch
-rwxr-xr-x 1 root    43800 wrz  5  2019 timeout
-rwxr-xr-x 1 root    55640 wrz  5  2019 test
-rwxr-xr-x 1 root    43384 wrz  5  2019 tee
-rwxr-xr-x 1 root    72088 wrz  5  2019 tail
-rwxr-xr-x 1 root    43352 wrz  5  2019 tac
-rwxr-xr-x 1 root    39256 wrz  5  2019 sync
-rwxr-xr-x 1 root    47456 wrz  5  2019 sum
-rwxr-xr-x 1 root    84344 wrz  5  2019 stty
-rwxr-xr-x 1 root    51544 wrz  5  2019 stdbuf
-rwxr-xr-x 1 root    88440 wrz  5  2019 stat
-rwxr-xr-x 1 root    60184 wrz  5  2019 split
-rwxr-xr-x 1 root   117376 wrz  5  2019 sort
-rwxr-xr-x 1 root    39256 wrz  5  2019 sleep
-rwxr-xr-x 1 root    59736 wrz  5  2019 shuf
-rwxr-xr-x 1 root    63864 wrz  5  2019 shred
-rwxr-xr-x 1 root    67960 wrz  5  2019 sha512sum
-rwxr-xr-x 1 root    67960 wrz  5  2019 sha384sum
-rwxr-xr-x 1 root    59768 wrz  5  2019 sha256sum
-rwxr-xr-x 1 root    59768 wrz  5  2019 sha224sum
-rwxr-xr-x 1 root    51576 wrz  5  2019 sha1sum
-rwxr-xr-x 1 root    51544 wrz  5  2019 seq
-rwxr-xr-x 1 root    39256 wrz  5  2019 runcon
-rwxr-xr-x 1 root    47448 wrz  5  2019 rmdir
-rwxr-xr-x 1 root    72056 wrz  5  2019 rm
-rwxr-xr-x 1 root    51576 wrz  5  2019 realpath
-rwxr-xr-x 1 root    51544 wrz  5  2019 readlink
-rwxr-xr-x 1 root    43352 wrz  5  2019 pwd
-rwxr-xr-x 1 root    80280 wrz  5  2019 ptx
-rwxr-xr-x 1 root    59736 wrz  5  2019 printf
-rwxr-xr-x 1 root    39256 wrz  5  2019 printenv
-rwxr-xr-x 1 root    76216 wrz  5  2019 pr
-rwxr-xr-x 1 root    43384 wrz  5  2019 pinky
-rwxr-xr-x 1 root    39256 wrz  5  2019 pathchk
-rwxr-xr-x 1 root    43384 wrz  5  2019 paste
-rwxr-xr-x 1 root    72056 wrz  5  2019 od
-rwxr-xr-x 1 root    67992 wrz  5  2019 numfmt
-rwxr-xr-x 1 root    43352 wrz  5  2019 nproc
-rwxr-xr-x 1 root    43352 wrz  5  2019 nohup
-rwxr-xr-x 1 root    43448 wrz  5  2019 nl
-rwxr-xr-x 1 root    43352 wrz  5  2019 nice
-rwxr-xr-x 1 root   149888 wrz  5  2019 mv
-rwxr-xr-x 1 root    47448 wrz  5  2019 mktemp
-rwxr-xr-x 1 root    72024 wrz  5  2019 mknod
-rwxr-xr-x 1 root    67928 wrz  5  2019 mkfifo
-rwxr-xr-x 1 root    88408 wrz  5  2019 mkdir
-rwxr-xr-x 1 root    47480 wrz  5  2019 md5sum
-rwxr-xr-x 1 root   142144 wrz  5  2019 ls
-rwxr-xr-x 1 root    39256 wrz  5  2019 logname
-rwxr-xr-x 1 root    76160 wrz  5  2019 ln
-rwxr-xr-x 1 root    39256 wrz  5  2019 link
-rwxr-xr-x 1 root    55672 wrz  5  2019 join
-rwxr-xr-x 1 root   158112 wrz  5  2019 install
-rwxr-xr-x 1 root    47480 wrz  5  2019 id
-rwxr-xr-x 1 root    39256 wrz  5  2019 hostid
-rwxr-xr-x 1 root    47480 wrz  5  2019 head
-rwxr-xr-x 1 root    39256 wrz  5  2019 groups
-rwxr-xr-x 1 root    43352 wrz  5  2019 fold
-rwxr-xr-x 1 root    47448 wrz  5  2019 fmt
-rwxr-xr-x 1 root    39256 wrz  5  2019 false
-rwxr-xr-x 1 root    80248 wrz  5  2019 factor
-rwxr-xr-x 1 root    55640 wrz  5  2019 expr
-rwxr-xr-x 1 root    43384 wrz  5  2019 expand
-rwxr-xr-x 1 root    43352 wrz  5  2019 env
-rwxr-xr-x 1 root    39256 wrz  5  2019 echo
-rwxr-xr-x 1 root   108920 wrz  5  2019 du
-rwxr-xr-x 1 root    39256 wrz  5  2019 dirname
-rwxr-xr-x 1 root    47456 wrz  5  2019 dircolors
-rwxr-xr-x 1 root   142144 wrz  5  2019 dir
-rwxr-xr-x 1 root    93128 wrz  5  2019 df
-rwxr-xr-x 1 root    80256 wrz  5  2019 dd
-rwxr-xr-x 1 root   108920 wrz  5  2019 date
-rwxr-xr-x 1 root    47480 wrz  5  2019 cut
-rwxr-xr-x 1 root    55672 wrz  5  2019 csplit
-rwxr-xr-x 1 root   153976 wrz  5  2019 cp
-rwxr-xr-x 1 root    43384 wrz  5  2019 comm
-rwxr-xr-x 1 root    39256 wrz  5  2019 cksum
-rwxr-xr-x 1 root    72024 wrz  5  2019 chown
-rwxr-xr-x 1 root    63864 wrz  5  2019 chmod
-rwxr-xr-x 1 root    72024 wrz  5  2019 chgrp
-rwxr-xr-x 1 root    72024 wrz  5  2019 chcon
-rwxr-xr-x 1 root    43416 wrz  5  2019 cat
-rwxr-xr-x 1 root    39256 wrz  5  2019 basename
-rwxr-xr-x 1 root    43352 wrz  5  2019 base64
-rwxr-xr-x 1 root    43352 wrz  5  2019 base32
-rwxr-xr-x 1 root    59768 wrz  5  2019 b2sum
-rwxr-xr-x 1 root    39288 wrz  5  2019 arch
-rwxr-xr-x 1 root    59736 wrz  5  2019 [
-rwxr-xr-x 1 root     1297 wrz  5  2019 bzmore
-rwxr-xr-x 1 root    18584 wrz  5  2019 bzip2recover
-rwxr-xr-x 1 root    39144 wrz  5  2019 bzip2
-rwxr-xr-x 1 root     3775 wrz  5  2019 bzgrep
-rwxr-xr-x 1 root     2227 wrz  5  2019 bzdiff
-rwxr-xr-x 1 root    39144 wrz  5  2019 bzcat
-rwxr-xr-x 1 root    39144 wrz  5  2019 bunzip2
-rwxr-xr-x 1 root     3846 wrz  7  2019 fakeroot-tcp
-rwxr-xr-x 1 root     3851 wrz  7  2019 fakeroot-sysv
-rwxr-xr-x 1 root    35072 wrz  7  2019 faked-tcp
-rwxr-xr-x 1 root    35088 wrz  7  2019 faked-sysv
-rwxr-xr-x 1 root    39080 wrz  9  2019 transicc
-rwxr-xr-x 1 root    35056 wrz  9  2019 tificc
-rwxr-xr-x 1 root    26784 wrz  9  2019 psicc
-rwxr-xr-x 1 root    26840 wrz  9  2019 linkicc
-rwxr-xr-x 1 root    34992 wrz  9  2019 jpgicc
-rwxr-xr-x 1 root   207296 wrz 12  2019 baobab
-rwxr-xr-x 1 root    51352 wrz 19  2019 xdg-dbus-proxy
-rwxr-xr-x 1 root    14488 wrz 25  2019 ipod-time-sync
-rwxr-xr-x 1 root    22680 wrz 25  2019 ipod-read-sysinfo-extended
-rwxr-xr-x 1 root    71968 wrz 26  2019 gnome-power-statistics
-rwxr-xr-x 1 root    71912 wrz 28  2019 mousetweaks
-rwxr-xr-x 1 root   408408 wrz 30  2019 gnome-todo
-rwxr-xr-x 1 root    14640 paź  1  2019 usbreset
-rwxr-xr-x 1 root    31112 paź  1  2019 usbhid-dump
-rwxr-xr-x 1 root     4100 paź  1  2019 usb-devices
-rwxr-xr-x 1 root   248328 paź  1  2019 lsusb
-rwxr-xr-x 1 root   118008 paź 11  2019 install-info
-rwxr-xr-x 1 root   317176 paź 11  2019 info
-rwxr-xr-x 1 root    34488 paź 11  2019 inputattach
-rwxr-xr-x 1 root   516760 paź 15  2019 rsync
-rwxr-xr-x 1 root    18487 paź 19  2019 run-mailcap
-rwxr-xr-x 1 root      853 paź 19  2019 cautious-launcher
-rwxr-xr-x 1 root      125 paź 27  2019 perldoc
-rwxr-xr-x 1 root    26856 lis  7  2019 hostname
-rwxr-xr-x 1 root    14488 lis 11  2019 monitor-sensor
-rwxr-xr-x 1 root   190704 lis 11  2019 lz4
-rwxr-xr-x 1 root    36008 lis 12  2019 pstree
-rwxr-xr-x 1 root    14488 lis 12  2019 pslog
-rwxr-xr-x 1 root    22760 lis 12  2019 prtstat
-rwxr-xr-x 1 root    14488 lis 12  2019 peekfd
-rwxr-xr-x 1 root    32024 lis 12  2019 killall
-rwxr-xr-x 1 root    40184 lis 12  2019 fuser
-rwxr-xr-x 1 root      452 lis 17  2019 sensible-pager
-rwxr-xr-x 1 root     1169 lis 17  2019 sensible-editor
-rwxr-xr-x 1 root     1230 lis 17  2019 sensible-browser
-rwxr-xr-x 1 root     2442 lis 17  2019 select-editor
-rwxr-xr-x 1 root    19016 lis 28  2019 acpi_listen
-rwxr-xr-x 1 root    16200 lis 29  2019 lwp-request
-rwxr-xr-x 1 root     2413 lis 29  2019 lwp-mirror
-rwxr-xr-x 1 root     2711 lis 29  2019 lwp-dump
-rwxr-xr-x 1 root    10292 lis 29  2019 lwp-download
-rwxr-xr-x 1 root     2558 gru  4  2019 apport-bug
-rwxr-xr-x 1 root      946 gru  7  2019 which
-rwxr-xr-x 1 root    14360 gru  7  2019 tempfile
-rwxr-xr-x 1 root    10481 gru  7  2019 savelog
-rwxr-xr-x 1 root    27144 gru  7  2019 run-parts
-rwxr-xr-x 1 root    14536 gru  7  2019 ischroot
-rwxr-xr-x 1 root    26856 gru  7  2019 file2brl
-rwxr-xr-x 1 root    18584 gru  9  2019 gst-typefind-1.0
-rwxr-xr-x 1 root    39064 gru  9  2019 gst-launch-1.0
-rwxr-xr-x 1 root    63728 gru  9  2019 gst-inspect-1.0
-rwxr-xr-x 1 root    22680 gru 10  2019 upower
-rwxr-xr-x 1 root     4553 gru 13  2019 znew
-rwxr-xr-x 1 root     1842 gru 13  2019 zmore
-rwxr-xr-x 1 root     2206 gru 13  2019 zless
-rwxr-xr-x 1 root     7585 gru 13  2019 zgrep
-rwxr-xr-x 1 root     2081 gru 13  2019 zforce
-rwxr-xr-x 1 root       29 gru 13  2019 zfgrep
-rwxr-xr-x 1 root       29 gru 13  2019 zegrep
-rwxr-xr-x 1 root     5880 gru 13  2019 zdiff
-rwxr-xr-x 1 root     1678 gru 13  2019 zcmp
-rwxr-xr-x 1 root     1984 gru 13  2019 zcat
-rwxr-xr-x 1 root     2346 gru 13  2019 uncompress
-rwxr-xr-x 1 root    97496 gru 13  2019 gzip
-rwxr-xr-x 1 root     6376 gru 13  2019 gzexe
-rwxr-xr-x 1 root     2346 gru 13  2019 gunzip
-rwxr-xr-x 1 root      389 gru 17  2019 chardetect3
-rwxr-xr-x 1 root   212320 gru 23  2019 syslinux
-rwxr-xr-x 1 root       30 sty 16  2020 rgrep
-rwxr-xr-x 1 root    27104 sty 16  2020 file
-rwxr-xr-x 1 root   166136 sty 19  2020 speech-dispatcher
-rwxr-xr-x 1 root    31656 sty 19  2020 spd-say
-rwxr-xr-x 1 root     1003 sty 19  2020 spd-conf
-rwxr-xr-x 1 root     4298 sty 22  2020 dh_dkms
-rwxr-xr-x 1 root    14568 sty 23  2020 unity-scope-loader
-rwxr-xr-x 1 root    14656 sty 23  2020 msexpand
-rwxr-xr-x 1 root    14656 sty 23  2020 mscompress
-rwxr-xr-x 1 root    53472 sty 25  2020 rhythmbox-client
-rwxr-xr-x 1 root    14648 sty 25  2020 rhythmbox
-rwxr-xr-x 1 root     1544 sty 25  2020 apturl-gtk
-rwxr-xr-x 1 root    30960 sty 26  2020 setpci
-rwxr-xr-x 1 root    94160 sty 26  2020 lspci
-rwxr-xr-x 1 root     2446 sty 26  2020 dh_bash-completion
-rwxr-xr-x 1 root   199136 sty 29  2020 grep
-rwxr-xr-x 1 root       28 sty 29  2020 fgrep
-rwxr-xr-x 1 root       28 sty 29  2020 egrep
-rwxr-xr-x 1 root     2514 sty 30  2020 helpztags
-rwxr-xr-x 1 root    26952 sty 30  2020 zjsdecode
-rwxr-xr-x 1 root    18752 sty 30  2020 xqxdecode
-rwxr-xr-x 1 root    14656 sty 30  2020 usb_printerid
-rwxr-xr-x 1 root    18752 sty 30  2020 slxdecode
-rwxr-xr-x 1 root    23144 sty 30  2020 qpdldecode
-rwxr-xr-x 1 root     5640 sty 30  2020 printer-profile
-rwxr-xr-x 1 root    18752 sty 30  2020 opldecode
-rwxr-xr-x 1 root    18768 sty 30  2020 oakdecode
-rwxr-xr-x 1 root    22848 sty 30  2020 lavadecode
-rwxr-xr-x 1 root    18752 sty 30  2020 hipercdecode
-rwxr-xr-x 1 root    26944 sty 30  2020 hbpldecode
-rwxr-xr-x 1 root    18752 sty 30  2020 gipddecode
-rwxr-xr-x 1 root    25952 sty 30  2020 foo2zjs-wrapper
-rwxr-xr-x 1 root     2997 sty 30  2020 foo2zjs-pstops
-rwxr-xr-x 1 root    45288 sty 30  2020 foo2zjs
-rwxr-xr-x 1 root    17572 sty 30  2020 foo2xqx-wrapper
-rwxr-xr-x 1 root    40168 sty 30  2020 foo2xqx
-rwxr-xr-x 1 root    17603 sty 30  2020 foo2slx-wrapper
-rwxr-xr-x 1 root    31976 sty 30  2020 foo2slx
-rwxr-xr-x 1 root    19514 sty 30  2020 foo2qpdl-wrapper
-rwxr-xr-x 1 root    44296 sty 30  2020 foo2qpdl
-rwxr-xr-x 1 root    17871 sty 30  2020 foo2oak-wrapper
-rwxr-xr-x 1 root    40360 sty 30  2020 foo2oak
-rwxr-xr-x 1 root    20083 sty 30  2020 foo2lava-wrapper
-rwxr-xr-x 1 root    45304 sty 30  2020 foo2lava
-rwxr-xr-x 1 root    19204 sty 30  2020 foo2hp2600-wrapper
-rwxr-xr-x 1 root    40424 sty 30  2020 foo2hp
-rwxr-xr-x 1 root    18541 sty 30  2020 foo2hiperc-wrapper
-rwxr-xr-x 1 root    44264 sty 30  2020 foo2hiperc
-rwxr-xr-x 1 root    18343 sty 30  2020 foo2hbpl2-wrapper
-rwxr-xr-x 1 root    37128 sty 30  2020 foo2hbpl2
-rwxr-xr-x 1 root    17268 sty 30  2020 foo2ddst-wrapper
-rwxr-xr-x 1 root    36072 sty 30  2020 foo2ddst
-rwxr-xr-x 1 root    18752 sty 30  2020 ddstdecode
-rwxr-xr-x 1 root    14656 sty 30  2020 arm2hpdl
-rwxr-xr-x 1 root    26776 sty 31  2020 traceroute6.iputils
-rwxr-xr-x 1 root    18584 sty 31  2020 tracepath
-rwxr-xr-x 1 root    72776 sty 31  2020 ping
-rwxr-xr-x 1 root    33648 sty 31  2020 m2400w
-rwxr-xr-x 1 root    14578 sty 31  2020 m2300w-wrapper
-rwxr-xr-x 1 root    29552 sty 31  2020 m2300w
-rwxr-xr-x 1 root    88864 lut  1  2020 mt-gnu
-rwxr-xr-x 1 root   165504 lut  1  2020 cpio
-rwxr-xr-x 1 root     1396 lut  3  2020 dh_perl_openssl
-rwxr-xr-x 1 root    55552 lut  7  2020 x86_64-pc-linux-gnu-pkg-config
-rwxr-xr-x 1 root    55552 lut  7  2020 pkg-config
-rwxr-xr-x 1 root    57920 lut  8  2020 perli11ndoc
-rwxr-xr-x 1 root   168800 lut 13  2020 ss
-rwxr-xr-x 1 root     1656 lut 13  2020 routel
-rwxr-xr-x 1 root      208 lut 13  2020 routef
-rwxr-xr-x 1 root   133360 lut 13  2020 rdma
-rwxr-xr-x 1 root    80112 lut 13  2020 nstat
-rwxr-xr-x 1 root    31240 lut 13  2020 lnstat
-rwxr-xr-x 1 root   611960 lut 13  2020 ip
-rwxr-sr-x 1 root    43720 lut 13  2020 crontab
-rwxr-xr-x 1 root    10658 lut 14  2020 ssh-copy-id
-rwxr-xr-x 1 root    14656 lut 14  2020 lsattr
-rwxr-xr-x 1 root    14656 lut 14  2020 chattr
-rwxr-xr-x 1 root      706 lut 15  2020 lsinitramfs
-rwxr-xr-x 1 root   162552 lut 16  2020 mawk
-rwxr-xr-x 1 root     1141 lut 16  2020 ibus-table-createdb
-rwxr-xr-x 1 root    76152 lut 18  2020 xargs
-rwxr-xr-x 1 root   320160 lut 18  2020 find
-rwxr-xr-x 1 root     3595 lut 18  2020 unmkinitramfs
-rwxr-xr-x 1 root    31016 lut 18  2020 mkzftree
-rwxr-xr-x 1 root   187672 lut 18  2020 isovfy
-rwxr-xr-x 1 root   350744 lut 18  2020 isoinfo
-rwxr-xr-x 1 root   187672 lut 18  2020 isodump
-rwxr-xr-x 1 root     6210 lut 18  2020 geteltorito
-rwxr-xr-x 1 root   657304 lut 18  2020 genisoimage
-rwxr-xr-x 1 root   183576 lut 18  2020 devdump
-rwxr-xr-x 1 root    34984 lut 18  2020 whiptail
-rwxr-xr-x 1 root      383 lut 21  2020 mako-render
-rwxr-xr-x 1 root       89 lut 22  2020 red
-rwxr-xr-x 1 root    55504 lut 22  2020 ed
-rwxr-xr-x 1 root    26784 lut 24  2020 gnome-thumbnail-font
-rwxr-xr-x 1 root    96840 lut 24  2020 gnome-font-viewer
-rwxr-xr-x 1 root    35224 lut 25  2020 totem-video-thumbnailer
-rwxr-xr-x 1 root    22912 lut 25  2020 totem
-rwxr-xr-x 1 root    56536 lut 25  2020 whatis
-rwxr-xr-x 1 root    27544 lut 25  2020 man-recode
-rwxr-xr-x 1 root    39632 lut 25  2020 manpath
-rwxr-xr-x 1 root   142432 lut 25  2020 mandb
-rwxr-xr-x 1 root   119632 lut 25  2020 man
-rwxr-xr-x 1 root   101320 lut 25  2020 lexgrog
-rwxr-xr-x 1 root    39616 lut 25  2020 catman
-rwxr-xr-x 1 root    31040 lut 26  2020 tset
-rwxr-xr-x 1 root    26968 lut 26  2020 tput
-rwxr-xr-x 1 root    22840 lut 26  2020 toe
-rwxr-xr-x 1 root    92584 lut 26  2020 tic
-rwxr-xr-x 1 root    18744 lut 26  2020 tabs
-rwxr-xr-x 1 root    63880 lut 26  2020 infocmp
-rwxr-xr-x 1 root    14656 lut 26  2020 clear
-rwxr-xr-x 1 root    22760 lut 27  2020 w.procps
-rwxr-xr-x 1 root    27208 lut 27  2020 watch
-rwxr-xr-x 1 root    39168 lut 27  2020 vmstat
-rwxr-xr-x 1 root    14568 lut 27  2020 uptime
-rwxr-xr-x 1 root   129072 lut 27  2020 top
-rwxr-xr-x 1 root    22776 lut 27  2020 tload
-rwxr-xr-x 1 root    22768 lut 27  2020 slabtop
-rwxr-xr-x 1 root    30952 lut 27  2020 skill
-rwxr-xr-x 1 root    14568 lut 27  2020 pwdx
-rwxr-xr-x 1 root   137688 lut 27  2020 ps
-rwxr-xr-x 1 root    35064 lut 27  2020 pmap
-rwxr-xr-x 1 root    30968 lut 27  2020 pgrep
-rwxr-xr-x 1 root    30952 lut 27  2020 kill
-rwxr-xr-x 1 root    26864 lut 27  2020 free
-rwxr-xr-x 1 root   135960 lut 27  2020 zenity
-rwxr-xr-x 1 root     9228 lut 27  2020 gdialog
-rwxr-xr-x 1 root    23736 lut 28  2020 xkbwatch
-rwxr-xr-x 1 root    23640 lut 28  2020 xkbvleds
-rwxr-xr-x 1 root    96608 lut 28  2020 xkbprint
-rwxr-xr-x 1 root    43408 lut 28  2020 xkbevd
-rwxr-xr-x 1 root   217184 lut 28  2020 xkbcomp
-rwxr-xr-x 1 root    14664 lut 28  2020 xkbbell
-rwxr-xr-x 1 root    31440 lut 28  2020 setxkbmap
-rwxr-xr-x 1 root    35120 lut 29  2020 xwud
-rwxr-xr-x 1 root    39232 lut 29  2020 xwd
-rwxr-xr-x 1 root    19024 lut 29  2020 xmore
-rwxr-xr-x 1 root    83152 lut 29  2020 xman
-rwxr-xr-x 1 root    49584 lut 29  2020 xmag
-rwxr-xr-x 1 root    27920 lut 29  2020 xlogo
-rwxr-xr-x 1 root    27648 lut 29  2020 xload
-rwxr-xr-x 1 root    80304 lut 29  2020 xgc
-rwxr-xr-x 1 root    32560 lut 29  2020 xeyes
-rwxr-xr-x 1 root   689512 lut 29  2020 xedit
-rwxr-xr-x 1 root   110736 lut 29  2020 xditview
-rwxr-xr-x 1 root    23184 lut 29  2020 xcutsel
-rwxr-xr-x 1 root    22832 lut 29  2020 xcursorgen
-rwxr-xr-x 1 root    27936 lut 29  2020 xconsole
-rwxr-xr-x 1 root    66704 lut 29  2020 xclock
-rwxr-xr-x 1 root    27296 lut 29  2020 xclipboard
-rwxr-xr-x 1 root    48624 lut 29  2020 xcalc
-rwxr-xr-x 1 root    24768 lut 29  2020 xbiff
-rwxr-xr-x 1 root     2807 lut 29  2020 x11perfcomp
-rwxr-xr-x 1 root   202200 lut 29  2020 x11perf
-rwxr-xr-x 1 root    23336 lut 29  2020 transset
-rwxr-xr-x 1 root    61392 lut 29  2020 rendercheck
-rwxr-xr-x 1 root    28384 lut 29  2020 oclock
-rwxr-xr-x 1 root    51648 lut 29  2020 ico
-rwxr-xr-x 1 root    14664 lut 29  2020 bmtoa
-rwxr-xr-x 1 root   108944 lut 29  2020 bitmap
-rwxr-xr-x 1 root    14640 lut 29  2020 atobm
-rwxr-xr-x 1 root   105232 lut 29  2020 xsm
-rwxr-xr-x 1 root    26944 lut 29  2020 smproxy
-rwxr-xr-x 1 root     1469 lut 29  2020 rstartd
-rwxr-xr-x 1 root     2610 lut 29  2020 rstart
-rwxr-xr-x 1 root    51592 lut 29  2020 xwininfo
-rwxr-xr-x 1 root    18744 lut 29  2020 xvinfo
-rwxr-xr-x 1 root    49768 lut 29  2020 xprop
-rwxr-xr-x 1 root    27840 lut 29  2020 xmessage
-rwxr-xr-x 1 root    27032 lut 29  2020 xlsfonts
-rwxr-xr-x 1 root    18752 lut 29  2020 xlsclients
-rwxr-xr-x 1 root    14648 lut 29  2020 xlsatoms
-rwxr-xr-x 1 root    14648 lut 29  2020 xkill
-rwxr-xr-x 1 root    49056 lut 29  2020 xfontsel
-rwxr-xr-x 1 root    41024 lut 29  2020 xfd
-rwxr-xr-x 1 root    35488 lut 29  2020 xev
-rwxr-xr-x 1 root    14648 lut 29  2020 xdriinfo
-rwxr-xr-x 1 root    44104 lut 29  2020 xdpyinfo
-rwxr-xr-x 1 root    32016 lut 29  2020 viewres
-rwxr-xr-x 1 root    53680 lut 29  2020 luit
-rwxr-xr-x 1 root    15080 lut 29  2020 listres
-rwxr-xr-x 1 root    74448 lut 29  2020 editres
-rwxr-xr-x 1 root    14648 lut 29  2020 appres
-rwxr-xr-x 1 root    39768 mar  1  2020 setfacl
-rwxr-xr-x 1 root    31512 mar  1  2020 getfacl
-rwxr-xr-x 1 root    18584 mar  1  2020 chacl
-rwxr-xr-x 1 root    59776 mar  3  2020 udisksctl
-rwxr-xr-x 1 root   166384 mar  3  2020 xbrlapi
-rwxr-xr-x 1 root    26792 mar  3  2020 vstp
-rwxr-xr-x 1 root    26784 mar  3  2020 eutp
-rwxr-xr-x 1 root   219936 mar  3  2020 brltty-ttb
-rwxr-xr-x 1 root   186976 mar  3  2020 brltty-trtxt
-rwxr-xr-x 1 root   248544 mar  3  2020 brltty-ctb
-rwxr-xr-x 1 root   818800 mar  3  2020 brltty
-rwxr-xr-x 1 root    18584 mar  7  2020 ulockmgr_server
-rwsr-xr-x 1 root    39144 mar  7  2020 fusermount
-rwxr-xr-x 1 root       54 mar  8  2020 gnome-session-custom-session
-rwxr-xr-x 1 root   793440 mar  9  2020 gnome-calculator
-rwxr-xr-x 1 root   252304 mar  9  2020 gcalccmd
-rwxr-xr-x 1 root    43664 mar  9  2020 nc.openbsd
-rwxr-xr-x 1 root     3060 mar  9  2020 migrate-pubring-from-classic-gpg
-rwxr-xr-x 1 root    18744 mar 10  2020 watchgnupg
-rwxr-xr-x 1 root   125984 mar 10  2020 symcryptrun
-rwxr-xr-x 1 root   179168 mar 10  2020 kbxutil
-rwxr-xr-x 1 root     3516 mar 10  2020 gpg-zip
-rwxr-xr-x 1 root   208072 mar 10  2020 gpg-wks-server
-rwxr-xr-x 1 root   457880 mar 10  2020 gpgv
-rwxr-xr-x 1 root   155264 mar 10  2020 gpgtar
-rwxr-xr-x 1 root    88840 mar 10  2020 gpgsplit
-rwxr-xr-x 1 root   519416 mar 10  2020 gpgsm
-rwxr-xr-x 1 root    35200 mar 10  2020 gpgparsemail
-rwxr-xr-x 1 root   167072 mar 10  2020 gpg-connect-agent
-rwxr-xr-x 1 root   178848 mar 10  2020 gpgconf
-rwxr-xr-x 1 root   895272 mar 10  2020 gpgcompose
-rwxr-xr-x 1 root   418856 mar 10  2020 gpg-agent
-rwxr-xr-x 1 root  1066992 mar 10  2020 gpg
-rwxr-xr-x 1 root   121920 mar 10  2020 dirmngr-client
-rwxr-xr-x 1 root   583536 mar 10  2020 dirmngr
-rwxr-xr-x 1 root    55528 mar 11  2020 dconf
-rwxr-xr-x 1 root    65224 mar 11  2020 xsetwacom
-rwxr-xr-x 1 root    30896 mar 11  2020 isdv4-serial-inputattach
-rwxr-xr-x 1 root    18608 mar 11  2020 isdv4-serial-debugger
-rwxr-xr-x 1 root  1164352 mar 11  2020 gnome-keyring-daemon
-rwxr-xr-x 1 root    22904 mar 11  2020 gnome-keyring-3
-rwxr-xr-x 1 root    51584 mar 11  2020 rygel
-rwxr-xr-x 1 root   174424 mar 12  2020 kmod
-rwxr-xr-x 1 root    97016 mar 12  2020 gnome-screenshot
-rwxr-xr-x 1 root    12120 mar 13  2020 py3compile
-rwxr-xr-x 1 root     7813 mar 13  2020 py3clean
-rwxr-xr-x 1 root  1203176 mar 13  2020 seahorse
-rwxr-xr-x 1 root      385 mar 14  2020 keyring
-rwxr-xr-x 1 root    67816 mar 14  2020 appstreamcli
-rwxr-xr-x 1 root   195920 mar 16  2020 tracker
-rwxr-xr-x 1 root    18808 mar 19  2020 gcr-viewer
lrwxrwxrwx 1 root       11 mar 20  2020 x86_64-linux-gnu-gcov-tool -> gcov-tool-9
lrwxrwxrwx 1 root       11 mar 20  2020 x86_64-linux-gnu-gcov-dump -> gcov-dump-9
lrwxrwxrwx 1 root        6 mar 20  2020 x86_64-linux-gnu-gcov -> gcov-9
lrwxrwxrwx 1 root       12 mar 20  2020 x86_64-linux-gnu-gcc-ranlib -> gcc-ranlib-9
lrwxrwxrwx 1 root        8 mar 20  2020 x86_64-linux-gnu-gcc-nm -> gcc-nm-9
lrwxrwxrwx 1 root        8 mar 20  2020 x86_64-linux-gnu-gcc-ar -> gcc-ar-9
lrwxrwxrwx 1 root        5 mar 20  2020 x86_64-linux-gnu-gcc -> gcc-9
lrwxrwxrwx 1 root        5 mar 20  2020 x86_64-linux-gnu-g++ -> g++-9
lrwxrwxrwx 1 root       11 mar 20  2020 gcov-tool -> gcov-tool-9
lrwxrwxrwx 1 root       11 mar 20  2020 gcov-dump -> gcov-dump-9
lrwxrwxrwx 1 root        6 mar 20  2020 gcov -> gcov-9
lrwxrwxrwx 1 root       12 mar 20  2020 gcc-ranlib -> gcc-ranlib-9
lrwxrwxrwx 1 root        8 mar 20  2020 gcc-nm -> gcc-nm-9
lrwxrwxrwx 1 root        8 mar 20  2020 gcc-ar -> gcc-ar-9
lrwxrwxrwx 1 root        5 mar 20  2020 gcc -> gcc-9
lrwxrwxrwx 1 root        5 mar 20  2020 g++ -> g++-9
-rwxr-xr-x 1 root    59696 mar 20  2020 colormgr
-rwxr-xr-x 1 root    22832 mar 20  2020 cd-it8
-rwxr-xr-x 1 root    14640 mar 20  2020 cd-iccdump
-rwxr-xr-x 1 root    26928 mar 20  2020 cd-fix-profile
-rwxr-xr-x 1 root    26928 mar 20  2020 cd-create-profile
-rwxr-xr-x 1 root    18672 mar 20  2020 notify-send
-rwxr-xr-x 1 root   753568 mar 21  2020 troff
-rwxr-xr-x 1 root   141832 mar 21  2020 tbl
-rwxr-xr-x 1 root    47624 mar 21  2020 soelim
-rwxr-xr-x 1 root    68104 mar 21  2020 preconv
-rwxr-xr-x 1 root   221536 mar 21  2020 pic
-rwxr-xr-x 1 root     3293 mar 21  2020 nroff
-rwxr-xr-x 1 root      913 mar 21  2020 neqn
-rwxr-xr-x 1 root   132672 mar 21  2020 grotty
-rwxr-xr-x 1 root   186304 mar 21  2020 grops
-rwxr-xr-x 1 root     2776 mar 21  2020 grog
-rwxr-xr-x 1 root   124448 mar 21  2020 groff
-rwxr-xr-x 1 root   206336 mar 21  2020 eqn
-rwxr-xr-x 1 root   857288 mar 21  2020 lshw
-rwxr-xr-x 1 root     2541 mar 22  2020 uz
-rwxr-xr-x 1 root     2295 mar 22  2020 tgz
-rwxr-xr-x 1 root      784 mar 22  2020 mxtar
-rwxr-xr-x 1 root   201472 mar 22  2020 mtools
-rwxr-xr-x 1 root    14744 mar 22  2020 mkmanifest
-rwxr-xr-x 1 root      847 mar 22  2020 mcomp
-rwxr-xr-x 1 root     1679 mar 22  2020 mcheck
-rwxr-xr-x 1 root     2668 mar 22  2020 amuFormat.sh
-rwxr-xr-x 1 root    14640 mar 22  2020 word-list-compress
-rwxr-xr-x 1 root       57 mar 22  2020 run-with-aspell
-rwxr-xr-x 1 root    14640 mar 22  2020 prezip-bin
-rwxr-xr-x 1 root     5656 mar 22  2020 prezip
-rwxr-xr-x 1 root     5656 mar 22  2020 preunzip
-rwxr-xr-x 1 root     5656 mar 22  2020 precat
-rwxr-xr-x 1 root     2044 mar 22  2020 aspell-import
-rwxr-xr-x 1 root   170496 mar 22  2020 aspell
-rwxr-xr-x 1 root    43240 mar 22  2020 ngettext
-rwxr-xr-x 1 root     4629 mar 22  2020 gettext.sh
-rwxr-xr-x 1 root    43240 mar 22  2020 gettext
-rwxr-xr-x 1 root    43240 mar 22  2020 envsubst
-rwxr-xr-x 1 root    80528 mar 22  2020 pinentry-gnome3
-rwxr-xr-x 1 root    68240 mar 22  2020 pinentry-curses
-rwxr-xr-x 1 root    55712 mar 23  2020 update-alternatives
-rwxr-xr-x 1 root     3262 mar 23  2020 dpkg-vendor
-rwxr-xr-x 1 root    84472 mar 23  2020 dpkg-trigger
-rwxr-xr-x 1 root    63760 mar 23  2020 dpkg-statoverride
-rwxr-xr-x 1 root   125424 mar 23  2020 dpkg-split
-rwxr-xr-x 1 root    23022 mar 23  2020 dpkg-source
-rwxr-xr-x 1 root    31416 mar 23  2020 dpkg-shlibdeps
-rwxr-xr-x 1 root     9167 mar 23  2020 dpkg-scansources
-rwxr-xr-x 1 root     8698 mar 23  2020 dpkg-scanpackages
-rwxr-xr-x 1 root   166488 mar 23  2020 dpkg-query
-rwxr-xr-x 1 root     4567 mar 23  2020 dpkg-parsechangelog
-rwxr-xr-x 1 root     6789 mar 23  2020 dpkg-name
-rwxr-xr-x 1 root     8547 mar 23  2020 dpkg-mergechangelogs
-rwxr-xr-x 1 root    20514 mar 23  2020 dpkg-maintscript-helper
-rwxr-xr-x 1 root    10902 mar 23  2020 dpkg-gensymbols
-rwxr-xr-x 1 root    14199 mar 23  2020 dpkg-gencontrol
-rwxr-xr-x 1 root    17492 mar 23  2020 dpkg-genchanges
-rwxr-xr-x 1 root    16795 mar 23  2020 dpkg-genbuildinfo
-rwxr-xr-x 1 root   154208 mar 23  2020 dpkg-divert
-rwxr-xr-x 1 root     2782 mar 23  2020 dpkg-distaddfile
-rwxr-xr-x 1 root   178728 mar 23  2020 dpkg-deb
-rwxr-xr-x 1 root     7624 mar 23  2020 dpkg-checkbuilddeps
-rwxr-xr-x 1 root    30610 mar 23  2020 dpkg-buildpackage
-rwxr-xr-x 1 root     7565 mar 23  2020 dpkg-buildflags
-rwxr-xr-x 1 root    12852 mar 23  2020 dpkg-architecture
-rwxr-xr-x 1 root   309944 mar 23  2020 dpkg
-rwxr-xr-x 1 root   115376 mar 23  2020 telnet.netkit
-rwxr-xr-x 1 root    51432 mar 24  2020 gst-play-1.0
-rwxr-xr-x 1 root    30872 mar 24  2020 gst-discoverer-1.0
-rwxr-xr-x 1 root    22760 mar 24  2020 gst-device-monitor-1.0
-rwxr-xr-x 1 root    64336 mar 24  2020 xinput
-rwxr-xr-x 1 root    59768 mar 24  2020 update-mime-database
-rwxr-xr-x 1 root   761312 mar 24  2020 gnome-disks
-rwxr-xr-x 1 root    55688 mar 24  2020 gnome-disk-image-mounter
-rwxr-xr-x 1 root   858016 mar 25  2020 transmission-gtk
-rwxr-xr-x 1 root     9112 mar 26  2020 rdiffdir
-rwxr-xr-x 1 root     5355 mar 26  2020 duplicity
-rwxr-xr-x 1 root    14960 mar 26  2020 gnome-session-quit
-rwxr-xr-x 1 root    80216 mar 26  2020 gnome-session-properties
-rwxr-xr-x 1 root    14656 mar 26  2020 gnome-session-inhibit
-rwxr-xr-x 1 root      806 mar 26  2020 gnome-session
-rwxr-xr-x 1 root    39233 mar 27  2020 setupcon
-rwxr-xr-x 1 root   149904 mar 27  2020 ckbcomp
-rwxr-xr-x 1 root    30952 mar 27  2020 pdfunite
-rwxr-xr-x 1 root    47464 mar 27  2020 pdftotext
-rwxr-xr-x 1 root    31080 mar 27  2020 pdftops
-rwxr-xr-x 1 root    35080 mar 27  2020 pdftoppm
-rwxr-xr-x 1 root   125184 mar 27  2020 pdftohtml
-rwxr-xr-x 1 root   166152 mar 27  2020 pdftocairo
-rwxr-xr-x 1 root    26856 mar 27  2020 pdfsig
-rwxr-xr-x 1 root    22760 mar 27  2020 pdfseparate
-rwxr-xr-x 1 root    59744 mar 27  2020 pdfinfo
-rwxr-xr-x 1 root    59744 mar 27  2020 pdfimages
-rwxr-xr-x 1 root    22880 mar 27  2020 pdffonts
-rwxr-xr-x 1 root    23464 mar 27  2020 pdfdetach
-rwxr-xr-x 1 root    22976 mar 27  2020 pdfattach
-rwxr-xr-x 1 root      388 mar 28  2020 python3-pasteurize
-rwxr-xr-x 1 root      384 mar 28  2020 python3-futurize
-rwxr-xr-x 1 root    18600 mar 30  2020 ul
-rwxr-xr-x 1 root    22680 mar 30  2020 printerbanner
-rwxr-xr-x 1 root    37832 mar 30  2020 ncal
-rwxr-xr-x 1 root     2885 mar 30  2020 lorder
-rwxr-xr-x 1 root    14728 mar 30  2020 look
-rwxr-xr-x 1 root    35072 mar 30  2020 hexdump
-rwxr-xr-x 1 root    14504 mar 30  2020 column
-rwxr-xr-x 1 root    14488 mar 30  2020 colrm
-rwxr-xr-x 1 root    14488 mar 30  2020 colcrt
-rwxr-xr-x 1 root    18584 mar 30  2020 col
-rwxr-xr-x 1 root    35464 mar 30  2020 calendar
-rwxr-sr-x 1 root    14488 mar 30  2020 bsd-write
-rwxr-xr-x 1 root    14488 mar 30  2020 bsd-from
-rwxr-xr-x 1 root    26776 mar 30  2020 whoopsie-preferences
-rwxr-xr-x 1 root      442 mar 30  2020 ubuntu-advantage
-rwxr-xr-x 1 root      719 kwi  1  2020 hp-plugin-ubuntu
-rwxr-xr-x 1 root    68032 kwi  1  2020 bwrap
-rwxr-xr-x 1 root     5191 kwi  1  2020 kernel-install
-rwxr-xr-x 1 root  7744792 kwi  2  2020 ubuntu-report
-rwxr-xr-x 1 root    80872 kwi  2  2020 update-notifier
-rwxr-xr-x 1 root    22680 kwi  2  2020 session-migration
-rwxr-xr-x 1 root   214104 kwi  3  2020 sdptool
-rwxr-xr-x 1 root   111288 kwi  3  2020 rfcomm
-rwxr-xr-x 1 root   149096 kwi  3  2020 rctest
-rwxr-xr-x 1 root   170296 kwi  3  2020 obexctl
-rwxr-xr-x 1 root   114952 kwi  3  2020 l2test
-rwxr-xr-x 1 root   102408 kwi  3  2020 l2ping
-rwxr-xr-x 1 root    18664 kwi  3  2020 hex2hcd
-rwxr-xr-x 1 root   151256 kwi  3  2020 hcitool
-rwxr-xr-x 1 root   200888 kwi  3  2020 hciconfig
-rwxr-xr-x 1 root   141400 kwi  3  2020 hciattach
-rwxr-xr-x 1 root   285576 kwi  3  2020 gatttool
-rwxr-xr-x 1 root   149240 kwi  3  2020 ciptool
-rwxr-xr-x 1 root   815256 kwi  3  2020 btmon
-rwxr-xr-x 1 root   307144 kwi  3  2020 btmgmt
-rwxr-xr-x 1 root    76008 kwi  3  2020 btattach
-rwxr-xr-x 1 root   252632 kwi  3  2020 bluetoothctl
-rwxr-xr-x 1 root    84200 kwi  3  2020 bluemoon
-rwxr-xr-x 1 root   197080 kwi  3  2020 bccmd
-rwxr-xr-x 1 root      372 kwi  6  2020 pyjwt3
-rwxr-xr-x 1 root    14568 kwi  6  2020 fc-validate
-rwxr-xr-x 1 root    14568 kwi  6  2020 fc-scan
-rwxr-xr-x 1 root    14568 kwi  6  2020 fc-query
-rwxr-xr-x 1 root    14568 kwi  6  2020 fc-pattern
-rwxr-xr-x 1 root    14568 kwi  6  2020 fc-match
-rwxr-xr-x 1 root    14568 kwi  6  2020 fc-list
-rwxr-xr-x 1 root    14568 kwi  6  2020 fc-conflist
-rwxr-xr-x 1 root    18664 kwi  6  2020 fc-cat
-rwxr-xr-x 1 root    22760 kwi  6  2020 fc-cache
-rwxr-xr-x 1 root    14600 kwi  6  2020 libwacom-list-local-devices
-rwxr-xr-x 1 root   186856 kwi  7  2020 x86_64-linux-gnu-strip
-rwxr-xr-x 1 root    35488 kwi  7  2020 x86_64-linux-gnu-strings
-rwxr-xr-x 1 root    35280 kwi  7  2020 x86_64-linux-gnu-size
-rwxr-xr-x 1 root   658360 kwi  7  2020 x86_64-linux-gnu-readelf
-rwxr-xr-x 1 root    68056 kwi  7  2020 x86_64-linux-gnu-ranlib
-rwxr-xr-x 1 root   402256 kwi  7  2020 x86_64-linux-gnu-objdump
-rwxr-xr-x 1 root   186856 kwi  7  2020 x86_64-linux-gnu-objcopy
-rwxr-xr-x 1 root    52664 kwi  7  2020 x86_64-linux-gnu-nm
-rwxr-xr-x 1 root  2312584 kwi  7  2020 x86_64-linux-gnu-ld.gold
-rwxr-xr-x 1 root  1740384 kwi  7  2020 x86_64-linux-gnu-ld.bfd
lrwxrwxrwx 1 root       23 kwi  7  2020 x86_64-linux-gnu-ld -> x86_64-linux-gnu-ld.bfd
-rwxr-xr-x 1 root   102280 kwi  7  2020 x86_64-linux-gnu-gprof
lrwxrwxrwx 1 root       24 kwi  7  2020 x86_64-linux-gnu-gold -> x86_64-linux-gnu-ld.gold
-rwxr-xr-x 1 root    43696 kwi  7  2020 x86_64-linux-gnu-elfedit
-rwxr-xr-x 1 root  2046584 kwi  7  2020 x86_64-linux-gnu-dwp
-rwxr-xr-x 1 root    30992 kwi  7  2020 x86_64-linux-gnu-c++filt
-rwxr-xr-x 1 root   696624 kwi  7  2020 x86_64-linux-gnu-as
-rwxr-xr-x 1 root    68024 kwi  7  2020 x86_64-linux-gnu-ar
-rwxr-xr-x 1 root    35536 kwi  7  2020 x86_64-linux-gnu-addr2line
lrwxrwxrwx 1 root       22 kwi  7  2020 strip -> x86_64-linux-gnu-strip
lrwxrwxrwx 1 root       24 kwi  7  2020 strings -> x86_64-linux-gnu-strings
lrwxrwxrwx 1 root       21 kwi  7  2020 size -> x86_64-linux-gnu-size
lrwxrwxrwx 1 root       24 kwi  7  2020 readelf -> x86_64-linux-gnu-readelf
lrwxrwxrwx 1 root       23 kwi  7  2020 ranlib -> x86_64-linux-gnu-ranlib
lrwxrwxrwx 1 root       24 kwi  7  2020 objdump -> x86_64-linux-gnu-objdump
lrwxrwxrwx 1 root       24 kwi  7  2020 objcopy -> x86_64-linux-gnu-objcopy
lrwxrwxrwx 1 root       19 kwi  7  2020 nm -> x86_64-linux-gnu-nm
lrwxrwxrwx 1 root       24 kwi  7  2020 ld.gold -> x86_64-linux-gnu-ld.gold
lrwxrwxrwx 1 root       23 kwi  7  2020 ld.bfd -> x86_64-linux-gnu-ld.bfd
lrwxrwxrwx 1 root       19 kwi  7  2020 ld -> x86_64-linux-gnu-ld
lrwxrwxrwx 1 root       22 kwi  7  2020 gprof -> x86_64-linux-gnu-gprof
lrwxrwxrwx 1 root       21 kwi  7  2020 gold -> x86_64-linux-gnu-gold
lrwxrwxrwx 1 root       24 kwi  7  2020 elfedit -> x86_64-linux-gnu-elfedit
lrwxrwxrwx 1 root       20 kwi  7  2020 dwp -> x86_64-linux-gnu-dwp
lrwxrwxrwx 1 root       24 kwi  7  2020 c++filt -> x86_64-linux-gnu-c++filt
lrwxrwxrwx 1 root       19 kwi  7  2020 as -> x86_64-linux-gnu-as
lrwxrwxrwx 1 root       19 kwi  7  2020 ar -> x86_64-linux-gnu-ar
lrwxrwxrwx 1 root       26 kwi  7  2020 addr2line -> x86_64-linux-gnu-addr2line
-rwxr-xr-x 1 root    63720 kwi  7  2020 yelp
-rwxr-xr-x 1 root    14576 kwi  8  2020 avahi-set-host-name
-rwxr-xr-x 1 root    22768 kwi  8  2020 avahi-resolve
-rwxr-xr-x 1 root    26864 kwi  8  2020 avahi-publish
-rwxr-xr-x 1 root    30968 kwi  8  2020 avahi-browse
-rwxr-xr-x 1 root      530 kwi  8  2020 remmina-gnome
-rwxr-xr-x 1 root       91 kwi  8  2020 gnome-session-remmina
-rwxr-xr-x 1 root    14648 kwi 10  2020 ttfread
-rwxr-xr-x 1 root   320136 kwi 10  2020 nano
-rwxr-xr-x 1 root   234136 kwi 10  2020 mmcli
-rwxr-xr-x 1 root     1301 kwi 12  2020 remmina-file-wrapper
-rwxr-xr-x 1 root   490480 kwi 12  2020 remmina
-rwxr-xr-x 1 root      275 kwi 14  2020 gvfs-tree
-rwxr-xr-x 1 root      277 kwi 14  2020 gvfs-trash
-rwxr-xr-x 1 root      273 kwi 14  2020 gvfs-set-attribute
-rwxr-xr-x 1 root      275 kwi 14  2020 gvfs-save
-rwxr-xr-x 1 root      279 kwi 14  2020 gvfs-rm
-rwxr-xr-x 1 root      279 kwi 14  2020 gvfs-rename
-rwxr-xr-x 1 root      275 kwi 14  2020 gvfs-open
-rwxr-xr-x 1 root      275 kwi 14  2020 gvfs-move
-rwxr-xr-x 1 root      277 kwi 14  2020 gvfs-mount
-rwxr-xr-x 1 root      281 kwi 14  2020 gvfs-monitor-file
-rwxr-xr-x 1 root      281 kwi 14  2020 gvfs-monitor-dir
-rwxr-xr-x 1 root      277 kwi 14  2020 gvfs-mkdir
-rwxr-xr-x 1 root      275 kwi 14  2020 gvfs-mime
-rwxr-xr-x 1 root      275 kwi 14  2020 gvfs-ls
-rwxr-xr-x 1 root      884 kwi 14  2020 gvfs-less
-rwxr-xr-x 1 root      275 kwi 14  2020 gvfs-info
-rwxr-xr-x 1 root      275 kwi 14  2020 gvfs-copy
-rwxr-xr-x 1 root      273 kwi 14  2020 gvfs-cat
-rwxr-xr-x 1 root    72000 kwi 14  2020 intel-virtual-output
-rwxr-xr-x 1 root    14776 kwi 14  2020 vmwarectrl
-rwxr-xr-x 1 root    18712 kwi 15  2020 xxd
-rwxr-xr-x 1 root     2121 kwi 15  2020 vimtutor
-rwxr-xr-x 1 root  1349848 kwi 15  2020 vim.tiny
-rwxr-xr-x 1 root  2906824 kwi 15  2020 vim.basic
-rwxr-xr-x 1 root    14720 kwi 16  2020 fprintd-verify
-rwxr-xr-x 1 root    14640 kwi 16  2020 fprintd-list
-rwxr-xr-x 1 root    23408 kwi 16  2020 fprintd-enroll
-rwxr-xr-x 1 root    14640 kwi 16  2020 fprintd-delete
-rwxr-xr-x 1 root  1583592 kwi 17  2020 strace
-rwxr-xr-x 1 root     2161 kwi 20  2020 xzmore
-rwxr-xr-x 1 root     1802 kwi 20  2020 xzless
-rwxr-xr-x 1 root     5628 kwi 20  2020 xzgrep
lrwxrwxrwx 1 root        6 kwi 20  2020 xzfgrep -> xzgrep
lrwxrwxrwx 1 root        6 kwi 20  2020 xzegrep -> xzgrep
-rwxr-xr-x 1 root     6632 kwi 20  2020 xzdiff
lrwxrwxrwx 1 root        6 kwi 20  2020 xzcmp -> xzdiff
lrwxrwxrwx 1 root        2 kwi 20  2020 xzcat -> xz
-rwxr-xr-x 1 root    80384 kwi 20  2020 xz
lrwxrwxrwx 1 root        2 kwi 20  2020 unxz -> xz
-rwxr-xr-x 1 root    14568 kwi 20  2020 lzmainfo
-rwxr-xr-x 1 root    26856 kwi 21  2020 update-desktop-database
-rwxr-xr-x 1 root    82344 kwi 21  2020 desktop-file-validate
-rwxr-xr-x 1 root    98488 kwi 21  2020 desktop-file-install
-rwxr-xr-x 1 root   113184 kwi 24  2020 ppdpo
-rwxr-xr-x 1 root    18816 kwi 24  2020 ppdmerge
-rwxr-xr-x 1 root   117280 kwi 24  2020 ppdi
-rwxr-xr-x 1 root   113184 kwi 24  2020 ppdhtml
-rwxr-xr-x 1 root   117280 kwi 24  2020 ppdc
-rwxr-xr-x 1 root    39520 kwi 24  2020 lpstat
-rwxr-xr-x 1 root    14640 kwi 24  2020 lprm
-rwxr-xr-x 1 root    18736 kwi 24  2020 lpr
-rwxr-xr-x 1 root    22912 kwi 24  2020 lpq
-rwxr-xr-x 1 root    22912 kwi 24  2020 lpoptions
-rwxr-xr-x 1 root    22840 kwi 24  2020 lp
-rwxr-xr-x 1 root    84280 kwi 24  2020 ipptool
-rwxr-xr-x 1 root    43416 kwi 24  2020 ippfind
-rwxr-xr-x 1 root    63872 kwi 24  2020 cupstestppd
-rwxr-xr-x 1 root    14648 kwi 24  2020 cancel
-rwxr-xr-x 1 root    14640 kwi 28  2020 gedit
-rwxr-xr-x 1 root       70 maj  4  2020 orca-dm-wrapper
-rwxr-xr-x 1 root     8729 maj  4  2020 orca
-rwxr-xr-x 1 root    39552 maj  8  2020 gtk-update-icon-cache
-rwxr-xr-x 1 root    14648 maj  8  2020 gtk-query-settings
-rwxr-xr-x 1 root    18904 maj  8  2020 gtk-launch
-rwxr-xr-x 1 root    18856 maj  8  2020 gtk-encode-symbolic-svg
-rwxr-xr-x 1 root    35568 maj  8  2020 gtk-builder-tool
-rwxr-xr-x 1 root   121224 maj  8  2020 broadwayd
-rwxr-xr-x 1 root      366 maj 18  2020 gamemoderun
-rwxr-xr-x 1 root   166392 maj 18  2020 gamemoded
-rwxr-xr-x 1 root    35344 maj 19  2020 aa-exec
-rwxr-xr-x 1 root    31248 maj 19  2020 aa-enabled
-rwxr-xr-x 1 root    80200 maj 20  2020 wpa_passphrase
-rwxr-xr-x 1 root   191360 maj 21  2020 gnome-logs
-rwsr-xr-x 1 root    68208 maj 28  2020 passwd
-rwsr-xr-x 1 root    44784 maj 28  2020 newgrp
-rwxr-xr-x 1 root    57104 maj 28  2020 login
-rwxr-xr-x 1 root    32416 maj 28  2020 lastlog
-rwsr-xr-x 1 root    88464 maj 28  2020 gpasswd
-rwxr-xr-x 1 root    23136 maj 28  2020 faillog
-rwxr-sr-x 1 root    31312 maj 28  2020 expiry
-rwsr-xr-x 1 root    53040 maj 28  2020 chsh
-rwsr-xr-x 1 root    85064 maj 28  2020 chfn
-rwxr-sr-x 1 root    84512 maj 28  2020 chage
-rwxr-xr-x 1 root     1455 maj 29  2020 ssh-argv0
-rwxr-xr-x 1 root   465208 maj 29  2020 ssh-keyscan
-rwxr-xr-x 1 root   477488 maj 29  2020 ssh-keygen
-rwxr-sr-x 1 root   350504 maj 29  2020 ssh-agent
-rwxr-xr-x 1 root   370976 maj 29  2020 ssh-add
-rwxr-xr-x 1 root   789448 maj 29  2020 ssh
-rwxr-xr-x 1 root   170504 maj 29  2020 sftp
-rwxr-xr-x 1 root   117040 maj 29  2020 scp
-rwxr-xr-x 1 root    26928 cze  2  2020 nautilus-autorun-software
-rwxr-xr-x 1 root  1767264 cze  2  2020 nautilus
-rwxr-xr-x 1 root    23128 cze  3  2020 gjs-console
-rwxr-xr-x 1 root     4589 cze  3  2020 update-manager
-rwxr-xr-x 1 root    23249 cze  3  2020 ubuntu-security-status
-rwxr-xr-x 1 root    10830 cze  3  2020 hwe-support-status
-rwxr-xr-x 1 root  4934880 cze 10  2020 shotwell
-rwxr-xr-x 1 root     2419 cze 11  2020 gnome-terminal.wrapper
-rwxr-xr-x 1 root   113816 cze 11  2020 gnome-terminal.real
-rwxr-xr-x 1 root     3400 cze 11  2020 gnome-terminal
-rwxr-xr-x 1 root    14480 cze 11  2020 dbus-uuidgen
-rwxr-xr-x 1 root    14480 cze 11  2020 dbus-update-activation-environment
-rwxr-xr-x 1 root    30864 cze 11  2020 dbus-send
-rwxr-xr-x 1 root    14480 cze 11  2020 dbus-run-session
-rwxr-xr-x 1 root    30864 cze 11  2020 dbus-monitor
-rwxr-xr-x 1 root    34960 cze 11  2020 dbus-launch
-rwxr-xr-x 1 root   249032 cze 11  2020 dbus-daemon
-rwxr-xr-x 1 root    14480 cze 11  2020 dbus-cleanup-sockets
-rwxr-xr-x 1 root   223752 cze 15  2020 deja-dup
-rwxr-xr-x 1 root    31112 cze 16  2020 gsettings
-rwxr-xr-x 1 root    22840 cze 16  2020 gresource
-rwxr-xr-x 1 root    92568 cze 16  2020 gio
-rwxr-xr-x 1 root    51592 cze 16  2020 gdbus
-rwxr-xr-x 1 root    22920 cze 16  2020 gapplication
-rwxr-xr-x 1 root   412016 cze 17  2020 simple-scan
-rwxr-xr-x 1 root    14568 cze 18  2020 clear_console
-rwxr-xr-x 1 root     6794 cze 18  2020 bashbug
-rwxr-xr-x 1 root  1183448 cze 18  2020 bash
-rwxr-xr-x 1 root    22912 cze 18  2020 fwupdtpmevlog
-rwxr-xr-x 1 root   297400 cze 18  2020 fwupdtool
-rwxr-xr-x 1 root   125232 cze 18  2020 fwupdmgr
-rwxr-xr-x 1 root    84488 cze 18  2020 fwupdate
-rwxr-xr-x 1 root    55600 cze 18  2020 fwupdagent
-rwxr-xr-x 1 root   117040 cze 18  2020 dfu-tool
-rwxr-xr-x 1 root    14720 cze 22  2020 vmware-xferlogs
-rwxr-xr-x 1 root    23264 cze 22  2020 vmware-vmblock-fuse
-rwxr-xr-x 1 root    22856 cze 22  2020 vmware-vgauth-smoketest
-rwxr-xr-x 1 root    18744 cze 22  2020 vmware-vgauth-cmd
-rwsr-xr-x 1 root    14728 cze 22  2020 vmware-user-suid-wrapper
lrwxrwxrwx 1 root       24 cze 22  2020 vmware-user -> vmware-user-suid-wrapper
-rwxr-xr-x 1 root    47712 cze 22  2020 vmware-toolbox-cmd
-rwxr-xr-x 1 root    26936 cze 22  2020 vmware-rpctool
-rwxr-xr-x 1 root    22840 cze 22  2020 vmware-namespace-cmd
-rwxr-xr-x 1 root    14720 cze 22  2020 vmware-hgfsclient
-rwxr-xr-x 1 root    14720 cze 22  2020 vmware-checkvm
-rwxr-xr-x 1 root    64064 cze 22  2020 vmtoolsd
-rwxr-xr-x 1 root     9802 cze 22  2020 vm-support
-rwxr-xr-x 1 root    56112 cze 22  2020 vmhgfs-fuse
-rwxr-xr-x 1 root   141856 cze 22  2020 VGAuthService
-rwxr-xr-x 1 root   593304 cze 22  2020 gnome-calendar
-rwxr-xr-x 1 root     2696 cze 25  2020 linux-version
-rwxr-xr-x 1 root     6320 cze 25  2020 linux-update-symlinks
-rwxr-xr-x 1 root     4090 cze 25  2020 linux-check-removal
-rwxr-xr-x 1 root     1180 lip  1  2020 ibus-setup
-rwxr-xr-x 1 root   199088 lip  1  2020 ibus-daemon
-rwxr-xr-x 1 root    43384 lip  1  2020 ibus
-rwxr-xr-x 1 root    24288 lip  2  2020 lesskey
-rwxr-xr-x 1 root    14656 lip  2  2020 lessecho
-rwxr-xr-x 1 root   180064 lip  2  2020 less
-rwxr-xr-x 1 root    18808 lip  6  2020 eog
-rwxr-xr-x 1 root    18824 lip  7  2020 evince-thumbnailer
-rwxr-xr-x 1 root    55824 lip  7  2020 evince-previewer
-rwxr-xr-x 1 root   482984 lip  7  2020 evince
-rwxr-xr-x 1 root    64512 lip 15  2020 sudoreplay
lrwxrwxrwx 1 root        4 lip 15  2020 sudoedit -> sudo
-rwsr-xr-x 1 root   166056 lip 15  2020 sudo
-rwxr-xr-x 1 root   273096 lip 15  2020 cvtsudoers
lrwxrwxrwx 1 root        7 lip 21  2020 x86_64 -> setarch
-rwxr-xr-x 1 root    35496 lip 21  2020 whereis
-rwxr-xr-x 1 root    35048 lip 21  2020 wdctl
-rwxr-sr-x 1 root    35048 lip 21  2020 wall
-rwxr-xr-x 1 root    39144 lip 21  2020 uuidparse
-rwxr-xr-x 1 root    14568 lip 21  2020 uuidgen
-rwxr-xr-x 1 root    30952 lip 21  2020 utmpdump
-rwxr-xr-x 1 root    43448 lip 21  2020 unshare
-rwsr-xr-x 1 root    39144 lip 21  2020 umount
-rwxr-xr-x 1 root    35048 lip 21  2020 taskset
-rwsr-xr-x 1 root    67816 lip 21  2020 su
-rwxr-xr-x 1 root    47336 lip 21  2020 setterm
-rwxr-xr-x 1 root    14568 lip 21  2020 setsid
-rwxr-xr-x 1 root    47344 lip 21  2020 setpriv
-rwxr-xr-x 1 root    27136 lip 21  2020 setarch
-rwxr-xr-x 1 root    30952 lip 21  2020 scriptreplay
-rwxr-xr-x 1 root    55528 lip 21  2020 script
-rwxr-xr-x 1 root    14568 lip 21  2020 rev
-rwxr-xr-x 1 root    63720 lip 21  2020 resizepart
-rwxr-xr-x 1 root    14568 lip 21  2020 renice
-rwxr-xr-x 1 root    22760 lip 21  2020 rename.ul
-rwxr-xr-x 1 root    39672 lip 21  2020 prlimit
-rwxr-xr-x 1 root   121072 lip 21  2020 partx
-rwxr-xr-x 1 root    35256 lip 21  2020 nsenter
-rwxr-xr-x 1 root    35048 lip 21  2020 namei
-rwxr-xr-x 1 root    14568 lip 21  2020 mountpoint
-rwsr-xr-x 1 root    55528 lip 21  2020 mount
-rwxr-xr-x 1 root    43160 lip 21  2020 more
-rwxr-xr-x 1 root    14568 lip 21  2020 mesg
-rwxr-xr-x 1 root    35120 lip 21  2020 mcookie
-rwxr-xr-x 1 root    51440 lip 21  2020 lsns
-rwxr-xr-x 1 root    67816 lip 21  2020 lsmem
-rwxr-xr-x 1 root    67816 lip 21  2020 lslogins
-rwxr-xr-x 1 root    39480 lip 21  2020 lslocks
-rwxr-xr-x 1 root    96488 lip 21  2020 lsipc
-rwxr-xr-x 1 root   100584 lip 21  2020 lscpu
-rwxr-xr-x 1 root   133352 lip 21  2020 lsblk
-rwxr-xr-x 1 root    52040 lip 21  2020 logger
lrwxrwxrwx 1 root        7 lip 21  2020 linux64 -> setarch
lrwxrwxrwx 1 root        7 lip 21  2020 linux32 -> setarch
lrwxrwxrwx 1 root        4 lip 21  2020 lastb -> last
-rwxr-xr-x 1 root    47336 lip 21  2020 last
-rwxr-xr-x 1 root    67816 lip 21  2020 ipcs
-rwxr-xr-x 1 root    35048 lip 21  2020 ipcrm
-rwxr-xr-x 1 root    35120 lip 21  2020 ipcmk
-rwxr-xr-x 1 root    30952 lip 21  2020 ionice
lrwxrwxrwx 1 root        7 lip 21  2020 i386 -> setarch
-rwxr-xr-x 1 root    22760 lip 21  2020 getopt
-rwxr-xr-x 1 root    35128 lip 21  2020 flock
-rwxr-xr-x 1 root    73128 lip 21  2020 findmnt
-rwxr-xr-x 1 root    35096 lip 21  2020 fincore
-rwxr-xr-x 1 root    35048 lip 21  2020 fallocate
-rwxr-xr-x 1 root    84440 lip 21  2020 dmesg
-rwxr-xr-x 1 root    30952 lip 21  2020 delpart
-rwxr-xr-x 1 root    39144 lip 21  2020 chrt
-rwxr-xr-x 1 root    51432 lip 21  2020 choom
-rwxr-xr-x 1 root    30952 lip 21  2020 addpart
lrwxrwxrwx 1 root       18 lip 21  2020 unattended-upgrades -> unattended-upgrade
-rwxr-xr-x 1 root    99313 lip 21  2020 unattended-upgrade
-rwxr-xr-x 1 root    14910 lip 28  2020 ubuntu-drivers
-rwxr-xr-x 1 root     2453 lip 28  2020 quirks-handler
-rwxr-xr-x 1 root      270 lip 28  2020 nvidia-detector
-rwxr-xr-x 1 root    56168 lip 28  2020 gpu-manager
-rwxr-xr-x 1 root  5486352 lip 28  2020 python3.8
-rwxr-xr-x 1 root    21535 lip 28  2020 pygettext3.8
-rwxr-xr-x 1 root       79 lip 28  2020 pydoc3.8
lrwxrwxrwx 1 root       23 lip 28  2020 pdb3.8 -> ../lib/python3.8/pdb.py
-rwxr-xr-x 1 root  1027064 lip 29 23:09 nm-connection-editor
-rwxr-xr-x 1 root   344016 lip 29 23:09 nm-applet
-rwxr-xr-x 1 root      126 sie  4 12:59 gdbtui
-rwxr-xr-x 1 root   521776 sie  4 12:59 gdbserver
-rwxr-xr-x 1 root     4045 sie  4 12:59 gdb-add-index
-rwxr-xr-x 1 root  8440200 sie  4 12:59 gdb
-rwxr-xr-x 1 root     3477 sie  4 12:59 gcore
-rwxr-xr-x 1 root   557256 sie  8 14:04 x86_64-linux-gnu-gcov-tool-9
-rwxr-xr-x 1 root   536712 sie  8 14:04 x86_64-linux-gnu-gcov-dump-9
-rwxr-xr-x 1 root   671984 sie  8 14:04 x86_64-linux-gnu-gcov-9
-rwxr-xr-x 1 root    35464 sie  8 14:04 x86_64-linux-gnu-gcc-ranlib-9
-rwxr-xr-x 1 root    35464 sie  8 14:04 x86_64-linux-gnu-gcc-nm-9
-rwxr-xr-x 1 root    35464 sie  8 14:04 x86_64-linux-gnu-gcc-ar-9
-rwxr-xr-x 1 root  1154192 sie  8 14:04 x86_64-linux-gnu-gcc-9
-rwxr-xr-x 1 root  1158288 sie  8 14:04 x86_64-linux-gnu-g++-9
-rwxr-xr-x 1 root  1158288 sie  8 14:04 x86_64-linux-gnu-cpp-9
lrwxrwxrwx 1 root       28 sie  8 14:04 gcov-tool-9 -> x86_64-linux-gnu-gcov-tool-9
lrwxrwxrwx 1 root       28 sie  8 14:04 gcov-dump-9 -> x86_64-linux-gnu-gcov-dump-9
lrwxrwxrwx 1 root       23 sie  8 14:04 gcov-9 -> x86_64-linux-gnu-gcov-9
lrwxrwxrwx 1 root       29 sie  8 14:04 gcc-ranlib-9 -> x86_64-linux-gnu-gcc-ranlib-9
lrwxrwxrwx 1 root       25 sie  8 14:04 gcc-nm-9 -> x86_64-linux-gnu-gcc-nm-9
lrwxrwxrwx 1 root       25 sie  8 14:04 gcc-ar-9 -> x86_64-linux-gnu-gcc-ar-9
lrwxrwxrwx 1 root       22 sie  8 14:04 gcc-9 -> x86_64-linux-gnu-gcc-9
lrwxrwxrwx 1 root       22 sie  8 14:04 g++-9 -> x86_64-linux-gnu-g++-9
lrwxrwxrwx 1 root       22 sie  8 14:04 cpp-9 -> x86_64-linux-gnu-cpp-9
-rwxr-xr-x 1 root    14496 sie 17 15:31 locale-check
-rwxr-xr-x 1 root    10456 sie 17 19:26 gnome-shell-perf-tool
-rwxr-xr-x 1 root     1706 sie 17 19:26 gnome-shell-extension-tool
-rwxr-xr-x 1 root    23168 sie 17 19:26 gnome-shell
-rwxr-xr-x 1 root    51664 sie 17 19:26 gnome-extensions
-rwxr-xr-x 1 root    26840 sie 17 22:02 zdump
-rwxr-xr-x 1 root    15378 sie 17 22:02 tzselect
-rwxr-xr-x 1 root    35192 sie 17 22:02 sprof
-rwxr-xr-x 1 root     4309 sie 17 22:02 sotruss
-rwxr-xr-x 1 root   101056 sie 17 22:02 rpcgen
-rwxr-xr-x 1 root    22904 sie 17 22:02 pldd
-rwxr-xr-x 1 root     6497 sie 17 22:02 mtrace
-rwxr-xr-x 1 root   334808 sie 17 22:02 localedef
-rwxr-xr-x 1 root    58944 sie 17 22:02 locale
-rwxr-xr-x 1 root     5427 sie 17 22:02 ldd
-rwxr-xr-x 1 root    68000 sie 17 22:02 iconv
-rwxr-xr-x 1 root    39576 sie 17 22:02 getent
-rwxr-xr-x 1 root    35112 sie 17 22:02 getconf
-rwxr-xr-x 1 root    27000 sie 17 22:02 gencat
-rwxr-xr-x 1 root     3330 sie 17 22:02 catchsegv
lrwxrwxrwx 1 root        8 sie 21 18:57 ps2txt -> ps2ascii
-rwxr-xr-x 1 root      669 sie 21 18:57 ps2ps2
-rwxr-xr-x 1 root      647 sie 21 18:57 ps2ps
-rwxr-xr-x 1 root     1078 sie 21 18:57 ps2pdfwr
-rwxr-xr-x 1 root      215 sie 21 18:57 ps2pdf14
-rwxr-xr-x 1 root      215 sie 21 18:57 ps2pdf13
-rwxr-xr-x 1 root      215 sie 21 18:57 ps2pdf12
-rwxr-xr-x 1 root      272 sie 21 18:57 ps2pdf
-rwxr-xr-x 1 root     2752 sie 21 18:57 ps2epsi
-rwxr-xr-x 1 root      631 sie 21 18:57 ps2ascii
-rwxr-xr-x 1 root      395 sie 21 18:57 printafm
-rwxr-xr-x 1 root      404 sie 21 18:57 pphs
-rwxr-xr-x 1 root      516 sie 21 18:57 pfbtopfa
-rwxr-xr-x 1 root      498 sie 21 18:57 pf2afm
-rwxr-xr-x 1 root      909 sie 21 18:57 pdf2ps
-rwxr-xr-x 1 root      698 sie 21 18:57 pdf2dsc
-rwxr-xr-x 1 root      277 sie 21 18:57 gsnd
-rwxr-xr-x 1 root      350 sie 21 18:57 gslp
-rwxr-xr-x 1 root      353 sie 21 18:57 gslj
-rwxr-xr-x 1 root      352 sie 21 18:57 gsdj500
-rwxr-xr-x 1 root      352 sie 21 18:57 gsdj
-rwxr-xr-x 1 root      350 sie 21 18:57 gsbj
-rwxr-xr-x 1 root    14488 sie 21 18:57 gs
lrwxrwxrwx 1 root        2 sie 21 18:57 ghostscript -> gs
-rwxr-xr-x 1 root      639 sie 21 18:57 eps2eps
-rwxr-xr-x 1 root     1007 sie 21 18:57 dvipdf
-rwxr-xr-x 1 root       52 sie 25 00:58 unopkg
lrwxrwxrwx 1 root       34 sie 25 00:58 soffice -> ../lib/libreoffice/program/soffice
-rwxr-xr-x 1 root       61 sie 25 00:58 lowriter
-rwxr-xr-x 1 root       58 sie 25 00:58 loweb
-rwxr-xr-x 1 root       59 sie 25 00:58 lomath
-rwxr-xr-x 1 root       62 sie 25 00:58 loimpress
-rwxr-xr-x 1 root       64 sie 25 00:58 lofromtemplate
-rwxr-xr-x 1 root       53 sie 25 00:58 loffice
-rwxr-xr-x 1 root       59 sie 25 00:58 lodraw
-rwxr-xr-x 1 root       59 sie 25 00:58 localc
lrwxrwxrwx 1 root       34 sie 25 00:58 libreoffice -> ../lib/libreoffice/program/soffice
-rwxr-xr-x 1 root   146096 wrz 10 10:53 boltctl
lrwxrwxrwx 1 root        5 wrz 16 18:05 nmtui-hostname -> nmtui
lrwxrwxrwx 1 root        5 wrz 16 18:05 nmtui-edit -> nmtui
lrwxrwxrwx 1 root        5 wrz 16 18:05 nmtui-connect -> nmtui
-rwxr-xr-x 1 root   683392 wrz 16 18:05 nmtui
-rwxr-xr-x 1 root    22832 wrz 16 18:05 nm-online
-rwxr-xr-x 1 root   859488 wrz 16 18:05 nmcli
-rwxr-xr-x 1 root   187624 wrz 17 14:47 umax_pp
-rwxr-xr-x 1 root    56280 wrz 17 14:47 scanimage
-rwxr-xr-x 1 root   138088 wrz 17 14:47 sane-find-scanner
-rwxr-xr-x 1 root    14488 wrz 17 14:47 gamma4scanimage
-rwxr-xr-x 1 root    22840 wrz 23 12:55 pkmon
-rwxr-xr-x 1 root    76088 wrz 23 12:55 pkcon
-rwxr-xr-x 1 root  5410280 wrz 24 17:03 gnome-control-center
-rwxr-xr-x 1 root   546928 wrz 24 20:53 file-roller
-rwxr-xr-x 1 root   272776 wrz 24 21:37 cheese
-rwxr-xr-x 1 root     1444 wrz 27 22:07 gnome-language-selector
-rwxr-xr-x 1 root     2771 wrz 27 22:07 check-language-support
-rwxr-xr-x 1 root    72216 wrz 28 12:30 nsupdate
-rwxr-xr-x 1 root   109360 wrz 28 12:30 nslookup
-rwxr-xr-x 1 root    51608 wrz 28 12:30 mdig
-rwxr-xr-x 1 root   105232 wrz 28 12:30 host
-rwxr-xr-x 1 root   138032 wrz 28 12:30 dig
-rwxr-xr-x 1 root    49552 wrz 28 12:30 delv
-rwxr-xr-x 1 root    35224 paź  1 17:15 bluetooth-sendto
-rwxr-xr-x 1 root     1689 paź 15 23:23 start-pulseaudio-x11
-rwxr-xr-x 1 root   100832 paź 15 23:23 pulseaudio
-rwxr-xr-x 1 root    14648 paź 15 23:23 pax11publish
-rwxr-xr-x 1 root    22928 paź 15 23:23 pasuspender
lrwxrwxrwx 1 root        5 paź 15 23:23 parecord -> pacat
lrwxrwxrwx 1 root        5 paź 15 23:23 parec -> pacat
lrwxrwxrwx 1 root        5 paź 15 23:23 paplay -> pacat
lrwxrwxrwx 1 root        5 paź 15 23:23 pamon -> pacat
-rwxr-xr-x 1 root     2039 paź 15 23:23 pa-info
-rwxr-xr-x 1 root     2259 paź 15 23:23 padsp
-rwxr-xr-x 1 root    67992 paź 15 23:23 pactl
-rwxr-xr-x 1 root    18824 paź 15 23:23 pacmd
-rwxr-xr-x 1 root    51624 paź 15 23:23 pacat
-rwxr-xr-x 1 root    31160 paź 16 17:50 speaker-test
-rwxr-xr-x 1 root    27008 paź 16 17:50 iecset
-rwxr-xr-x 1 root    92544 paź 16 17:50 axfer
-rwxr-xr-x 1 root    27064 paź 16 17:50 aseqnet
-rwxr-xr-x 1 root    27008 paź 16 17:50 aseqdump
-rwxr-xr-x 1 root    31120 paź 16 17:50 arecordmidi
lrwxrwxrwx 1 root        5 paź 16 17:50 arecord -> aplay
-rwxr-xr-x 1 root    27016 paź 16 17:50 aplaymidi
-rwxr-xr-x 1 root    84400 paź 16 17:50 aplay
-rwxr-xr-x 1 root    63952 paź 16 17:50 amixer
-rwxr-xr-x 1 root    31112 paź 16 17:50 amidi
-rwxr-xr-x 1 root    31528 paź 16 17:50 alsaucm
-rwxr-xr-x 1 root    14720 paź 16 17:50 alsatplg
-rwxr-xr-x 1 root    72432 paź 16 17:50 alsamixer
-rwxr-xr-x 1 root    85296 paź 16 17:50 alsaloop
-rwxr-xr-x 1 root    47552 paź 16 17:50 alsabat
-rwxr-xr-x 1 root    22912 paź 16 17:50 aconnect
-rwxr-xr-x 1 root    50718 paź 19 12:56 zipdetails
-rwxr-xr-x 1 root     5164 paź 19 12:56 xsubpp
-rwxr-xr-x 1 root    19150 paź 19 12:56 splain
-rwxr-xr-x 1 root     9976 paź 19 12:56 shasum
-rwxr-xr-x 1 root     4392 paź 19 12:56 ptargrep
-rwxr-xr-x 1 root     2628 paź 19 12:56 ptardiff
-rwxr-xr-x 1 root     3549 paź 19 12:56 ptar
-rwxr-xr-x 1 root    13655 paź 19 12:56 prove
-rwxr-xr-x 1 root     2527 paź 19 12:56 podselect
-rwxr-xr-x 1 root     3658 paź 19 12:56 podchecker
-rwxr-xr-x 1 root     3948 paź 19 12:56 pod2usage
-rwxr-xr-x 1 root    10803 paź 19 12:56 pod2text
-rwxr-xr-x 1 root    15034 paź 19 12:56 pod2man
-rwxr-xr-x 1 root     4134 paź 19 12:56 pod2html
-rwxr-xr-x 1 root     4533 paź 19 12:56 pl2pm
-rwxr-xr-x 1 root     8357 paź 19 12:56 piconv
-rwxr-xr-x 2 root    46366 paź 19 12:56 perlthanks
-rwxr-xr-x 1 root    10864 paź 19 12:56 perlivp
-rwxr-xr-x 2 root    46366 paź 19 12:56 perlbug
-rwxr-xr-x 1 root    14648 paź 19 12:56 perl5.30-x86_64-linux-gnu
-rwxr-xr-x 2 root  3478464 paź 19 12:56 perl5.30.0
-rwxr-xr-x 2 root  3478464 paź 19 12:56 perl
-rwxr-xr-x 1 root    15775 paź 19 12:56 libnetcfg
-rwxr-xr-x 1 root     4667 paź 19 12:56 json_pp
-rwxr-xr-x 1 root     4370 paź 19 12:56 instmodsh
-rwxr-xr-x 1 root    60866 paź 19 12:56 h2xs
-rwxr-xr-x 1 root    29224 paź 19 12:56 h2ph
-rwxr-xr-x 1 root     3066 paź 19 12:56 encguess
-rwxr-xr-x 1 root    42111 paź 19 12:56 enc2xs
-rwxr-xr-x 1 root     8176 paź 19 12:56 cpan5.30-x86_64-linux-gnu
-rwxr-xr-x 1 root     8155 paź 19 12:56 cpan
-rwxr-xr-x 1 root    15088 paź 19 12:56 corelist
-rwxr-xr-x 1 root    18848 paź 27 15:57 gdm-screenshot
-rwxr-xr-x 1 root    31520 paź 27 15:57 gdmflexiserver
-rwxr-xr-x 1 root    51352 lis  2 11:02 plymouth
-rwxr-xr-x 1 root    80664 lis  2 22:27 spice-vdagent
-rwxr-xr-x 1 root       80 lis  3 08:31 system-config-printer-applet
-rwxr-xr-x 1 root       95 lis  3 08:31 system-config-printer
-rwxr-xr-x 1 root       90 lis  3 08:31 scp-dbus-service
-rwxr-xr-x 1 root       95 lis  3 08:31 install-printerdriver
-rwxr-xr-x 1 root     4176 lis  3 15:08 software-properties-gtk
lrwxrwxrwx 1 root       18 lis  3 15:08 apt-add-repository -> add-apt-repository
-rwxr-xr-x 1 root     7415 lis  3 15:08 add-apt-repository
-rwxr-xr-x 1 root    14648 lis  5 15:13 enchant-lsmod-2
-rwxr-xr-x 1 root    22912 lis  5 15:13 enchant-2
lrwxrwxrwx 1 root        7 lis 11 13:15 static-sh -> busybox
-rwxr-xr-x 1 root  2172376 lis 11 13:15 busybox
-rwxr-xr-x 1 root   759056 lis 13 00:15 grub-syslinux2cfg
-rwxr-xr-x 1 root   278224 lis 13 00:15 grub-script-check
-rwxr-xr-x 1 root   815872 lis 13 00:15 grub-render-label
lrwxrwxrwx 1 root       34 lis 13 00:15 grub-ntldr-img -> ../lib/grub/i386-pc/grub-ntldr-img
-rwxr-xr-x 1 root   746288 lis 13 00:15 grub-mount
-rwxr-xr-x 1 root   489328 lis 13 00:15 grub-mkstandalone
-rwxr-xr-x 1 root   977200 lis 13 00:15 grub-mkrescue
-rwxr-xr-x 1 root   245328 lis 13 00:15 grub-mkrelpath
-rwxr-xr-x 1 root   254160 lis 13 00:15 grub-mkpasswd-pbkdf2
-rwxr-xr-x 1 root   411200 lis 13 00:15 grub-mknetdir
-rwxr-xr-x 1 root   258224 lis 13 00:15 grub-mklayout
-rwxr-xr-x 1 root   357328 lis 13 00:15 grub-mkimage
-rwxr-xr-x 1 root   274864 lis 13 00:15 grub-mkfont
-rwxr-xr-x 1 root   233600 lis 13 00:15 grub-menulst2cfg
-rwxr-xr-x 1 root     1681 lis 13 00:15 grub-kbdcomp
-rwxr-xr-x 1 root   249712 lis 13 00:15 grub-glue-efi
-rwxr-xr-x 1 root   923488 lis 13 00:15 grub-fstest
-rwxr-xr-x 1 root   799104 lis 13 00:15 grub-file
-rwxr-xr-x 1 root   253968 lis 13 00:15 grub-editenv
-rwxr-xr-x 1 root     9314 lis 18 00:26 do-release-upgrade
lrwxrwxrwx 1 root       25 lis 19 17:51 ubuntu-core-launcher -> ../lib/snapd/snap-confine
-rwxr-xr-x 1 root    43304 lis 19 17:51 snapfuse
lrwxrwxrwx 1 root       20 lis 19 17:51 snapctl -> ../lib/snapd/snapctl
-rwxr-xr-x 1 root 23586096 lis 19 17:51 snap
-rwxr-xr-x 1 root    22760 lis 23 20:31 nautilus-sendto
-rwxr-xr-x 1 root     1039 gru  2 13:42 aptdcon
-rwxr-xr-x 1 root   753336 gru  2 15:52 openssl
-rwxr-xr-x 1 root     6332 gru  2 15:52 c_rehash
-rwxr-xr-x 1 root    68592 gru  2 18:29 whoopsie
lrwxrwxrwx 1 root       10 gru  3 18:26 ubuntu-bug -> apport-bug
-rwxr-xr-x 1 root     8573 gru  3 18:26 oem-getlogs
-rwxr-xr-x 1 root     2068 gru  3 18:26 apport-unpack
lrwxrwxrwx 1 root       10 gru  3 18:26 apport-collect -> apport-bug
-rwxr-xr-x 1 root    13367 gru  3 18:26 apport-cli
-rwxr-xr-x 1 root    47504 gru  7 12:08 apt-sortpkgs
-rwxr-xr-x 1 root    63960 gru  7 12:08 apt-mark
-rwxr-xr-x 1 root    27931 gru  7 12:08 apt-key
-rwxr-xr-x 1 root    47576 gru  7 12:08 apt-get
-rwxr-xr-x 1 root   281056 gru  7 12:08 apt-ftparchive
-rwxr-xr-x 1 root    27104 gru  7 12:08 apt-extracttemplates
-rwxr-xr-x 1 root    27016 gru  7 12:08 apt-config
-rwxr-xr-x 1 root    31192 gru  7 12:08 apt-cdrom
-rwxr-xr-x 1 root    88536 gru  7 12:08 apt-cache
-rwxr-xr-x 1 root    18824 gru  7 12:08 apt
-rwxr-xr-x 1 root   342376 gru  7 15:48 gnome-system-monitor
-rwxr-xr-x 1 root    18832 gru  8 14:32 gdk-pixbuf-thumbnailer
-rwxr-xr-x 1 root    14656 gru  8 14:32 gdk-pixbuf-pixdata
-rwxr-xr-x 1 root    14672 gru  8 14:32 gdk-pixbuf-csource
-rwxr-xr-x 1 root   201032 gru 15 04:27 mutter
-rwxr-xr-x 1 root   448112 gru 16 02:38 tar
-rwxr-xr-x 1 root     5807 gru 16 22:42 mesa-overlay-control.py
-rwxr-xr-x 1 root   175744 gru 25 17:57 lsof
-rwxr-xr-x 1 root   223920 sty  4 20:04 trust
-rwxr-xr-x 1 root    35216 sty  4 20:04 p11-kit
lrwxrwxrwx 1 root       25 sty  6 13:36 firefox -> ../lib/firefox/firefox.sh
-rwxr-xr-x 1 root   941264 sty  6 21:47 udevadm
-rwxr-xr-x 1 root    47328 sty  6 21:47 timedatectl
lrwxrwxrwx 1 root       13 sty  6 21:47 systemd-umount -> systemd-mount
-rwxr-xr-x 1 root    30944 sty  6 21:47 systemd-tty-ask-password-agent
-rwxr-xr-x 1 root    88480 sty  6 21:47 systemd-tmpfiles
-rwxr-xr-x 1 root    55824 sty  6 21:47 systemd-sysusers
-rwxr-xr-x 1 root    22760 sty  6 21:47 systemd-stdio-bridge
-rwxr-xr-x 1 root    26848 sty  6 21:47 systemd-socket-activate
-rwxr-xr-x 1 root    59824 sty  6 21:47 systemd-run
lrwxrwxrwx 1 root       10 sty  6 21:47 systemd-resolve -> resolvectl
-rwxr-xr-x 1 root    18656 sty  6 21:47 systemd-path
-rwxr-xr-x 1 root    18664 sty  6 21:47 systemd-notify
-rwxr-xr-x 1 root    51664 sty  6 21:47 systemd-mount
-rwxr-xr-x 1 root    26952 sty  6 21:47 systemd-machine-id-setup
-rwxr-xr-x 1 root    22776 sty  6 21:47 systemd-inhibit
-rwxr-xr-x 1 root    22752 sty  6 21:47 systemd-id128
-rwxr-xr-x 1 root   104976 sty  6 21:47 systemd-hwdb
-rwxr-xr-x 1 root    22752 sty  6 21:47 systemd-escape
-rwxr-xr-x 1 root    18656 sty  6 21:47 systemd-detect-virt
-rwxr-xr-x 1 root    26848 sty  6 21:47 systemd-delta
-rwxr-xr-x 1 root    39160 sty  6 21:47 systemd-cgtop
-rwxr-xr-x 1 root    22864 sty  6 21:47 systemd-cgls
-rwxr-xr-x 1 root    18664 sty  6 21:47 systemd-cat
-rwxr-xr-x 1 root    14680 sty  6 21:47 systemd-ask-password
-rwxr-xr-x 1 root  1587584 sty  6 21:47 systemd-analyze
lrwxrwxrwx 1 root       20 sty  6 21:47 systemd -> /lib/systemd/systemd
-rwxr-xr-x 1 root   996584 sty  6 21:47 systemctl
-rwxr-xr-x 1 root   129408 sty  6 21:47 resolvectl
-rwxr-xr-x 1 root    76008 sty  6 21:47 networkctl
-rwxr-xr-x 1 root    59736 sty  6 21:47 loginctl
-rwxr-xr-x 1 root    26848 sty  6 21:47 localectl
-rwxr-xr-x 1 root    80120 sty  6 21:47 journalctl
-rwxr-xr-x 1 root    26848 sty  6 21:47 hostnamectl
-rwxr-xr-x 1 root    88416 sty  6 21:47 busctl
-rwxr-xr-x 1 root    63840 sty  6 21:47 bootctl
-rwxr-xr-x 1 root    38393 sty 11 14:39 xdg-settings
-rwxr-xr-x 1 root    37961 sty 11 14:39 xdg-screensaver
-rwxr-xr-x 1 root    25621 sty 11 14:39 xdg-open
-rwxr-xr-x 1 root    42122 sty 11 14:39 xdg-mime
-rwxr-xr-x 1 root    30028 sty 11 14:39 xdg-icon-resource
-rwxr-xr-x 1 root    26930 sty 11 14:39 xdg-email
-rwxr-xr-x 1 root    43276 sty 11 14:39 xdg-desktop-menu
-rwxr-xr-x 1 root    20638 sty 11 14:39 xdg-desktop-icon
lrwxrwxrwx 1 root        8 sty 11 14:39 browse -> xdg-open
-rwxr-xr-x 1 root  2324456 sty 17 10:13 Xwayland
-rwxr-xr-x 1 root      274 sty 17 10:13 Xorg
-rwxr-xr-x 1 root  2434568 sty 17 10:13 Xephyr
lrwxrwxrwx 1 root        4 sty 17 10:13 X -> Xorg
-rwxr-xr-x 1 root    18752 sty 17 10:13 gtf
-rwxr-xr-x 1 root    18752 sty 17 10:13 cvt
lrwxrwxrwx 1 root        1 sty 20 14:21 X11 -> .
lrwxrwxrwx 1 root       11 sty 20 14:21 POST -> lwp-request
lrwxrwxrwx 1 root       11 sty 20 14:21 HEAD -> lwp-request
lrwxrwxrwx 1 root       11 sty 20 14:21 GET -> lwp-request
lrwxrwxrwx 1 root        6 sty 20 14:21 apropos -> whatis
lrwxrwxrwx 1 root       12 sty 20 14:21 avahi-browse-domains -> avahi-browse
lrwxrwxrwx 1 root       13 sty 20 14:21 avahi-publish-service -> avahi-publish
lrwxrwxrwx 1 root       13 sty 20 14:21 avahi-publish-address -> avahi-publish
lrwxrwxrwx 1 root       21 sty 20 14:21 awk -> /etc/alternatives/awk
lrwxrwxrwx 1 root       13 sty 20 14:21 avahi-resolve-host-name -> avahi-resolve
lrwxrwxrwx 1 root       13 sty 20 14:21 avahi-resolve-address -> avahi-resolve
lrwxrwxrwx 1 root        6 sty 20 14:21 bzless -> bzmore
lrwxrwxrwx 1 root        6 sty 20 14:21 bzfgrep -> bzgrep
lrwxrwxrwx 1 root        6 sty 20 14:21 bzegrep -> bzgrep
lrwxrwxrwx 1 root        6 sty 20 14:21 bzcmp -> bzdiff
lrwxrwxrwx 1 root        4 sty 20 14:21 cal -> ncal
lrwxrwxrwx 1 root        3 sty 20 14:21 captoinfo -> tic
lrwxrwxrwx 1 root       11 sty 20 14:21 chardet3 -> chardetect3
lrwxrwxrwx 1 root       11 sty 20 14:21 compose -> run-mailcap
lrwxrwxrwx 1 root        5 sty 20 14:21 cpp -> cpp-9
lrwxrwxrwx 1 root        6 sty 20 14:21 ctstat -> lnstat
lrwxrwxrwx 1 root       20 sty 20 14:21 desktop-file-edit -> desktop-file-install
lrwxrwxrwx 1 root        8 sty 20 14:21 dnsdomainname -> hostname
lrwxrwxrwx 1 root        8 sty 20 14:21 domainname -> hostname
lrwxrwxrwx 1 root       29 sty 20 14:21 driverless -> ../lib/cups/driver/driverless
lrwxrwxrwx 1 root       24 sty 20 14:21 editor -> /etc/alternatives/editor
lrwxrwxrwx 1 root       11 sty 20 14:21 edit -> run-mailcap
lrwxrwxrwx 1 root       20 sty 20 14:21 ex -> /etc/alternatives/ex
lrwxrwxrwx 1 root        5 sty 20 14:21 foo2zjs-icc2ps -> psicc
lrwxrwxrwx 1 root       31 sty 20 14:21 foomatic-rip -> ../lib/cups/filter/foomatic-rip
lrwxrwxrwx 1 root       21 sty 20 14:21 ftp -> /etc/alternatives/ftp
lrwxrwxrwx 1 root       22 sty 20 14:21 from -> /etc/alternatives/from
lrwxrwxrwx 1 root       26 sty 20 14:21 futurize -> /etc/alternatives/futurize
lrwxrwxrwx 1 root        3 sty 20 14:21 geqn -> eqn
lrwxrwxrwx 1 root       49 sty 20 14:21 gio-querymodules -> ../lib/x86_64-linux-gnu/glib-2.0/gio-querymodules
lrwxrwxrwx 1 root       12 sty 20 14:21 ginstall-info -> install-info
lrwxrwxrwx 1 root       53 sty 20 14:21 glib-compile-schemas -> ../lib/x86_64-linux-gnu/glib-2.0/glib-compile-schemas
lrwxrwxrwx 1 root       11 sty 20 14:21 gjs -> gjs-console
lrwxrwxrwx 1 root       50 sty 20 14:21 gnome-characters -> ../share/org.gnome.Characters/org.gnome.Characters
lrwxrwxrwx 1 root       15 sty 20 14:21 gnome-keyring -> gnome-keyring-3
lrwxrwxrwx 1 root        4 sty 20 14:21 gnome-help -> yelp
lrwxrwxrwx 1 root       35 sty 20 14:21 gnome-text-editor -> /etc/alternatives/gnome-text-editor
lrwxrwxrwx 1 root       35 sty 20 14:21 gnome-www-browser -> /etc/alternatives/gnome-www-browser
lrwxrwxrwx 1 root        3 sty 20 14:21 gpic -> pic
lrwxrwxrwx 1 root        3 sty 20 14:21 gtbl -> tbl
lrwxrwxrwx 1 root       41 sty 20 14:21 gstreamer-codec-install -> /etc/alternatives/gstreamer-codec-install
lrwxrwxrwx 1 root        7 sty 20 14:21 hd -> hexdump
lrwxrwxrwx 1 root       26 sty 20 14:21 hp-firmware -> ../share/hplip/firmware.py
lrwxrwxrwx 1 root       24 sty 20 14:21 hp-doctor -> ../share/hplip/doctor.py
lrwxrwxrwx 1 root       36 sty 20 14:21 hp-config_usb_printer -> ../share/hplip/config_usb_printer.py
lrwxrwxrwx 1 root       26 sty 20 14:21 hp-colorcal -> ../share/hplip/colorcal.py
lrwxrwxrwx 1 root       23 sty 20 14:21 hp-clean -> ../share/hplip/clean.py
lrwxrwxrwx 1 root       23 sty 20 14:21 hp-check -> ../share/hplip/check.py
lrwxrwxrwx 1 root       23 sty 20 14:21 hp-align -> ../share/hplip/align.py
lrwxrwxrwx 1 root       26 sty 20 14:21 hp-timedate -> ../share/hplip/timedate.py
lrwxrwxrwx 1 root       26 sty 20 14:21 hp-testpage -> ../share/hplip/testpage.py
lrwxrwxrwx 1 root       23 sty 20 14:21 hp-setup -> ../share/hplip/setup.py
lrwxrwxrwx 1 root       22 sty 20 14:21 hp-scan -> ../share/hplip/scan.py
lrwxrwxrwx 1 root       23 sty 20 14:21 hp-query -> ../share/hplip/query.py
lrwxrwxrwx 1 root       23 sty 20 14:21 hp-probe -> ../share/hplip/probe.py
lrwxrwxrwx 1 root       24 sty 20 14:21 hp-plugin -> ../share/hplip/plugin.py
lrwxrwxrwx 1 root       27 sty 20 14:21 hp-pkservice -> ../share/hplip/pkservice.py
lrwxrwxrwx 1 root       25 sty 20 14:21 hp-makeuri -> ../share/hplip/makeuri.py
lrwxrwxrwx 1 root       28 sty 20 14:21 hp-logcapture -> ../share/hplip/logcapture.py
lrwxrwxrwx 1 root       24 sty 20 14:21 hp-levels -> ../share/hplip/levels.py
lrwxrwxrwx 1 root       22 sty 20 14:21 hp-info -> ../share/hplip/info.py
lrwxrwxrwx 1 root       29 sty 20 14:21 infobrowser -> /etc/alternatives/infobrowser
lrwxrwxrwx 1 root        3 sty 20 14:21 infotocap -> tic
lrwxrwxrwx 1 root       28 sty 20 14:21 iptables-xml -> ../sbin/xtables-legacy-multi
lrwxrwxrwx 1 root        8 sty 20 14:21 lessfile -> lesspipe
lrwxrwxrwx 1 root        4 sty 20 14:21 lsmod -> kmod
lrwxrwxrwx 1 root        2 sty 20 14:21 lz -> uz
lrwxrwxrwx 1 root       24 sty 20 14:21 lzmore -> /etc/alternatives/lzmore
lrwxrwxrwx 1 root       22 sty 20 14:21 lzma -> /etc/alternatives/lzma
lrwxrwxrwx 1 root       24 sty 20 14:21 lzless -> /etc/alternatives/lzless
lrwxrwxrwx 1 root       24 sty 20 14:21 lzgrep -> /etc/alternatives/lzgrep
lrwxrwxrwx 1 root       25 sty 20 14:21 lzfgrep -> /etc/alternatives/lzfgrep
lrwxrwxrwx 1 root       25 sty 20 14:21 lzegrep -> /etc/alternatives/lzegrep
lrwxrwxrwx 1 root       24 sty 20 14:21 lzdiff -> /etc/alternatives/lzdiff
lrwxrwxrwx 1 root       23 sty 20 14:21 lzcmp -> /etc/alternatives/lzcmp
lrwxrwxrwx 1 root       23 sty 20 14:21 lzcat -> /etc/alternatives/lzcat
lrwxrwxrwx 1 root        3 sty 20 14:21 lz4cat -> lz4
lrwxrwxrwx 1 root        3 sty 20 14:21 lz4c -> lz4
lrwxrwxrwx 1 root        6 sty 20 14:21 mcd -> mtools
lrwxrwxrwx 1 root        6 sty 20 14:21 mcat -> mtools
lrwxrwxrwx 1 root        6 sty 20 14:21 mbadblocks -> mtools
lrwxrwxrwx 1 root        6 sty 20 14:21 mattrib -> mtools
lrwxrwxrwx 1 root        6 sty 20 14:21 mclasserase -> mtools
lrwxrwxrwx 1 root        6 sty 20 14:21 mdeltree -> mtools
lrwxrwxrwx 1 root        6 sty 20 14:21 mdel -> mtools
lrwxrwxrwx 1 root        6 sty 20 14:21 md5sum.textutils -> md5sum
lrwxrwxrwx 1 root        6 sty 20 14:21 mcopy -> mtools
lrwxrwxrwx 1 root        6 sty 20 14:21 mdir -> mtools
lrwxrwxrwx 1 root        6 sty 20 14:21 mformat -> mtools
lrwxrwxrwx 1 root        6 sty 20 14:21 mdu -> mtools
lrwxrwxrwx 1 root        6 sty 20 14:21 minfo -> mtools
lrwxrwxrwx 1 root       11 sty 20 14:21 mkisofs -> genisoimage
lrwxrwxrwx 1 root        6 sty 20 14:21 mlabel -> mtools
lrwxrwxrwx 1 root        6 sty 20 14:21 mmove -> mtools
lrwxrwxrwx 1 root        6 sty 20 14:21 mmount -> mtools
lrwxrwxrwx 1 root        6 sty 20 14:21 mmd -> mtools
lrwxrwxrwx 1 root        6 sty 20 14:21 mren -> mtools
lrwxrwxrwx 1 root        6 sty 20 14:21 mrd -> mtools
lrwxrwxrwx 1 root        6 sty 20 14:21 mpartition -> mtools
lrwxrwxrwx 1 root       20 sty 20 14:21 mt -> /etc/alternatives/mt
lrwxrwxrwx 1 root        6 sty 20 14:21 mshowfat -> mtools
lrwxrwxrwx 1 root        6 sty 20 14:21 mshortname -> mtools
lrwxrwxrwx 1 root        6 sty 20 14:21 mtoolstest -> mtools
lrwxrwxrwx 1 root        6 sty 20 14:21 mtype -> mtools
lrwxrwxrwx 1 root        6 sty 20 14:21 mzip -> mtools
lrwxrwxrwx 1 root       20 sty 20 14:21 nc -> /etc/alternatives/nc
lrwxrwxrwx 1 root       22 sty 20 14:21 nawk -> /etc/alternatives/nawk
lrwxrwxrwx 1 root       24 sty 20 14:21 netcat -> /etc/alternatives/netcat
lrwxrwxrwx 1 root        8 sty 20 14:21 nisdomainname -> hostname
lrwxrwxrwx 1 root       17 sty 20 14:21 on_ac_power -> /sbin/on_ac_power
lrwxrwxrwx 1 root       23 sty 20 14:21 pager -> /etc/alternatives/pager
lrwxrwxrwx 1 root       28 sty 20 14:21 pasteurize -> /etc/alternatives/pasteurize
lrwxrwxrwx 1 root        6 sty 20 14:21 pdb3 -> pdb3.8
lrwxrwxrwx 1 root       22 sty 20 14:21 pftp -> /etc/alternatives/pftp
lrwxrwxrwx 1 root       26 sty 20 14:21 pinentry -> /etc/alternatives/pinentry
lrwxrwxrwx 1 root       14 sty 20 14:21 pidof -> /sbin/killall5
lrwxrwxrwx 1 root       22 sty 20 14:21 pico -> /etc/alternatives/pico
lrwxrwxrwx 1 root       30 sty 20 14:21 pinentry-x11 -> /etc/alternatives/pinentry-x11
lrwxrwxrwx 1 root        4 sty 20 14:21 ping6 -> ping
lrwxrwxrwx 1 root        4 sty 20 14:21 ping4 -> ping
lrwxrwxrwx 1 root        5 sty 20 14:21 pkill -> pgrep
lrwxrwxrwx 1 root       11 sty 20 14:21 print -> run-mailcap
lrwxrwxrwx 1 root        9 sty 20 14:21 psfgettable -> psfxtable
lrwxrwxrwx 1 root        9 sty 20 14:21 psfaddtable -> psfxtable
lrwxrwxrwx 1 root        9 sty 20 14:21 psfstriptable -> psfxtable
lrwxrwxrwx 1 root        6 sty 20 14:21 pstree.x11 -> pstree
lrwxrwxrwx 1 root        9 sty 20 14:21 python3 -> python3.8
lrwxrwxrwx 1 root       12 sty 20 14:21 pygettext3 -> pygettext3.8
lrwxrwxrwx 1 root        8 sty 20 14:21 pydoc3 -> pydoc3.8
lrwxrwxrwx 1 root       31 sty 20 14:21 py3versions -> ../share/python3/py3versions.py
lrwxrwxrwx 1 root       21 sty 20 14:21 rcp -> /etc/alternatives/rcp
lrwxrwxrwx 1 root        4 sty 20 14:21 rbash -> bash
lrwxrwxrwx 1 root        4 sty 20 14:21 reset -> tset
lrwxrwxrwx 1 root        4 sty 20 14:21 rnano -> nano
lrwxrwxrwx 1 root       24 sty 20 14:21 rlogin -> /etc/alternatives/rlogin
lrwxrwxrwx 1 root       21 sty 20 14:21 rsh -> /etc/alternatives/rsh
lrwxrwxrwx 1 root       29 sty 20 14:21 rrsync -> ../share/rsync/scripts/rrsync
lrwxrwxrwx 1 root        6 sty 20 14:21 rtstat -> lnstat
lrwxrwxrwx 1 root       23 sty 20 14:21 rview -> /etc/alternatives/rview
lrwxrwxrwx 1 root       11 sty 20 14:21 see -> run-mailcap
lrwxrwxrwx 1 root        4 sty 20 14:21 sh -> dash
lrwxrwxrwx 1 root        6 sty 20 14:21 sg -> newgrp
lrwxrwxrwx 1 root        3 sty 20 14:21 slogin -> ssh
lrwxrwxrwx 1 root        5 sty 20 14:21 snice -> skill
lrwxrwxrwx 1 root       24 sty 20 14:21 telnet -> /etc/alternatives/telnet
lrwxrwxrwx 1 root       33 sty 20 14:21 thunderbird -> ../lib/thunderbird/thunderbird.sh
lrwxrwxrwx 1 root       29 sty 20 14:21 traceroute6 -> /etc/alternatives/traceroute6
lrwxrwxrwx 1 root       16 sty 20 14:21 ua -> ubuntu-advantage
lrwxrwxrwx 1 root       24 sty 20 14:21 unlzma -> /etc/alternatives/unlzma
lrwxrwxrwx 1 root        3 sty 20 14:21 unlz4 -> lz4
lrwxrwxrwx 1 root       22 sty 20 14:21 view -> /etc/alternatives/view
lrwxrwxrwx 1 root       20 sty 20 14:21 vi -> /etc/alternatives/vi
lrwxrwxrwx 1 root       19 sty 20 14:21 w -> /etc/alternatives/w
lrwxrwxrwx 1 root       31 sty 20 14:21 x-www-browser -> /etc/alternatives/x-www-browser
lrwxrwxrwx 1 root       34 sty 20 14:21 x-window-manager -> /etc/alternatives/x-window-manager
lrwxrwxrwx 1 root       37 sty 20 14:21 x-terminal-emulator -> /etc/alternatives/x-terminal-emulator
lrwxrwxrwx 1 root       35 sty 20 14:21 x-session-manager -> /etc/alternatives/x-session-manager
lrwxrwxrwx 1 root       23 sty 20 14:21 write -> /etc/alternatives/write
lrwxrwxrwx 1 root        5 sty 20 14:21 x86_64-linux-gnu-cpp -> cpp-9
lrwxrwxrwx 1 root       34 sty 20 14:21 x86_64-linux-gnu-pkg-config -> /usr/share/pkg-config-crosswrapper
lrwxrwxrwx 1 root        8 sty 20 14:21 ypdomainname -> hostname
lrwxrwxrwx 1 root       34 sty 20 14:25 i686-linux-gnu-pkg-config -> /usr/share/pkg-config-crosswrapper
lrwxrwxrwx 1 root       20 sty 27 11:31 cc -> /etc/alternatives/cc
lrwxrwxrwx 1 root       21 sty 27 11:31 c89 -> /etc/alternatives/c89
lrwxrwxrwx 1 root       21 sty 27 11:31 c99 -> /etc/alternatives/c99
lrwxrwxrwx 1 root       26 sty 27 11:34 fakeroot -> /etc/alternatives/fakeroot
lrwxrwxrwx 1 root       21 sty 27 11:34 c++ -> /etc/alternatives/c++
lrwxrwxrwx 1 root       45 sty 27 11:35 VBoxClient -> /opt/VBoxGuestAdditions-6.1.16/bin/VBoxClient
lrwxrwxrwx 1 root       46 sty 27 11:35 VBoxControl -> /opt/VBoxGuestAdditions-6.1.16/bin/VBoxControl
lrwxrwxrwx 1 root       48 sty 27 11:35 VBoxDRMClient -> /opt/VBoxGuestAdditions-6.1.16/bin/VBoxDRMClient
lrwxrwxrwx 1 root       54 sty 27 11:37 VBoxClient-all -> /opt/VBoxGuestAdditions-6.1.16/other/98vboxadd-xclient
lrwxrwxrwx 1 root       21 sty 27 12:22 vim -> /etc/alternatives/vim
lrwxrwxrwx 1 root       25 sty 27 12:22 vimdiff -> /etc/alternatives/vimdiff
lrwxrwxrwx 1 root       22 sty 27 12:22 rvim -> /etc/alternatives/rvim
